[{
	"_id": {
		"$oid": "5ee9250a761cf87371cf30fe"
	},
	"KSATs": [
		{
			"ksat_id": "A0560",
			"item_proficiency": "",
			"url": "https://gitlab.com/90cos/training/courses/external/actp-linux/-/tree/master/actp-linux-python.rel-link.json"
		},
		{
			"ksat_id": "A0561",
			"item_proficiency": "",
			"url": "https://gitlab.com/90cos/training/courses/external/actp-linux/-/tree/master/actp-linux-python.rel-link.json"
		},
		{
			"ksat_id": "S0026",
			"item_proficiency": "",
			"url": "https://gitlab.com/90cos/training/courses/external/actp-linux/-/tree/master/actp-linux-python.rel-link.json"
		},
		{
			"ksat_id": "A0563",
			"item_proficiency": "",
			"url": "https://gitlab.com/90cos/training/courses/external/actp-linux/-/tree/master/actp-linux-python.rel-link.json"
		},
		{
			"ksat_id": "A0564",
			"item_proficiency": "",
			"url": "https://gitlab.com/90cos/training/courses/external/actp-linux/-/tree/master/actp-linux-python.rel-link.json"
		},
		{
			"ksat_id": "K0514",
			"item_proficiency": "",
			"url": "https://gitlab.com/90cos/training/courses/external/actp-linux/-/tree/master/actp-linux-python.rel-link.json"
		},
		{
			"ksat_id": "K0600",
			"item_proficiency": "",
			"url": "https://gitlab.com/90cos/training/courses/external/actp-linux/-/tree/master/actp-linux-python.rel-link.json"
		},
		{
			"ksat_id": "T0010",
			"item_proficiency": "",
			"url": "https://gitlab.com/90cos/training/courses/external/actp-linux/-/tree/master/actp-linux-python.rel-link.json"
		}
	],
	"network": "commercial",
	"course": "ACTP_Linux",
	"module": "actp-linux",
	"topic": "Python",
	"subject": "actp-linux-python",
	"work-roles": [
		"Senior-Dev-Linux"
	],
	"map_for": "training",
	"topic_path": "./",
	"created_on": "2020-06-16"
},
{
	"_id": {
		"$oid": "5ee9250a761cf87371cf30ff"
	},
	"KSATs": [
		{
			"ksat_id": "K0506",
			"item_proficiency": "",
			"url": "https://gitlab.com/90cos/training/courses/external/actp-linux/-/tree/master/actp-linux-kernel.rel-link.json"
		},
		{
			"ksat_id": "K0507",
			"item_proficiency": "",
			"url": "https://gitlab.com/90cos/training/courses/external/actp-linux/-/tree/master/actp-linux-kernel.rel-link.json"
		},
		{
			"ksat_id": "K0508",
			"item_proficiency": "",
			"url": "https://gitlab.com/90cos/training/courses/external/actp-linux/-/tree/master/actp-linux-kernel.rel-link.json"
		},
		{
			"ksat_id": "K0509",
			"item_proficiency": "",
			"url": "https://gitlab.com/90cos/training/courses/external/actp-linux/-/tree/master/actp-linux-kernel.rel-link.json"
		},
		{
			"ksat_id": "K0510",
			"item_proficiency": "",
			"url": "https://gitlab.com/90cos/training/courses/external/actp-linux/-/tree/master/actp-linux-kernel.rel-link.json"
		},
		{
			"ksat_id": "K0511",
			"item_proficiency": "",
			"url": "https://gitlab.com/90cos/training/courses/external/actp-linux/-/tree/master/actp-linux-kernel.rel-link.json"
		},
		{
			"ksat_id": "K0514",
			"item_proficiency": "",
			"url": "https://gitlab.com/90cos/training/courses/external/actp-linux/-/tree/master/actp-linux-kernel.rel-link.json"
		},
		{
			"ksat_id": "S0302",
			"item_proficiency": "",
			"url": "https://gitlab.com/90cos/training/courses/external/actp-linux/-/tree/master/actp-linux-kernel.rel-link.json"
		},
		{
			"ksat_id": "S0303",
			"item_proficiency": "",
			"url": "https://gitlab.com/90cos/training/courses/external/actp-linux/-/tree/master/actp-linux-kernel.rel-link.json"
		},
		{
			"ksat_id": "S0304",
			"item_proficiency": "",
			"url": "https://gitlab.com/90cos/training/courses/external/actp-linux/-/tree/master/actp-linux-kernel.rel-link.json"
		},
		{
			"ksat_id": "S0305",
			"item_proficiency": "",
			"url": "https://gitlab.com/90cos/training/courses/external/actp-linux/-/tree/master/actp-linux-kernel.rel-link.json"
		},
		{
			"ksat_id": "S0306",
			"item_proficiency": "",
			"url": "https://gitlab.com/90cos/training/courses/external/actp-linux/-/tree/master/actp-linux-kernel.rel-link.json"
		},
		{
			"ksat_id": "S0307",
			"item_proficiency": "",
			"url": "https://gitlab.com/90cos/training/courses/external/actp-linux/-/tree/master/actp-linux-kernel.rel-link.json"
		},
		{
			"ksat_id": "S0308",
			"item_proficiency": "",
			"url": "https://gitlab.com/90cos/training/courses/external/actp-linux/-/tree/master/actp-linux-kernel.rel-link.json"
		},
		{
			"ksat_id": "S0309",
			"item_proficiency": "",
			"url": "https://gitlab.com/90cos/training/courses/external/actp-linux/-/tree/master/actp-linux-kernel.rel-link.json"
		},
		{
			"ksat_id": "S0310",
			"item_proficiency": "",
			"url": "https://gitlab.com/90cos/training/courses/external/actp-linux/-/tree/master/actp-linux-kernel.rel-link.json"
		},
		{
			"ksat_id": "S0311",
			"item_proficiency": "",
			"url": "https://gitlab.com/90cos/training/courses/external/actp-linux/-/tree/master/actp-linux-kernel.rel-link.json"
		},
		{
			"ksat_id": "S0312",
			"item_proficiency": "",
			"url": "https://gitlab.com/90cos/training/courses/external/actp-linux/-/tree/master/actp-linux-kernel.rel-link.json"
		},
		{
			"ksat_id": "S0315",
			"item_proficiency": "",
			"url": "https://gitlab.com/90cos/training/courses/external/actp-linux/-/tree/master/actp-linux-kernel.rel-link.json"
		},
		{
			"ksat_id": "S0316",
			"item_proficiency": "",
			"url": "https://gitlab.com/90cos/training/courses/external/actp-linux/-/tree/master/actp-linux-kernel.rel-link.json"
		},
		{
			"ksat_id": "S0314",
			"item_proficiency": "",
			"url": "https://gitlab.com/90cos/training/courses/external/actp-linux/-/tree/master/actp-linux-kernel.rel-link.json"
		},
		{
			"ksat_id": "A0544",
			"item_proficiency": "",
			"url": "https://gitlab.com/90cos/training/courses/external/actp-linux/-/tree/master/actp-linux-kernel.rel-link.json"
		},
		{
			"ksat_id": "S0320",
			"item_proficiency": "",
			"url": "https://gitlab.com/90cos/training/courses/external/actp-linux/-/tree/master/actp-linux-kernel.rel-link.json"
		},
		{
			"ksat_id": "S0321",
			"item_proficiency": "",
			"url": "https://gitlab.com/90cos/training/courses/external/actp-linux/-/tree/master/actp-linux-kernel.rel-link.json"
		},
		{
			"ksat_id": "S0322",
			"item_proficiency": "",
			"url": "https://gitlab.com/90cos/training/courses/external/actp-linux/-/tree/master/actp-linux-kernel.rel-link.json"
		},
		{
			"ksat_id": "S0324",
			"item_proficiency": "",
			"url": "https://gitlab.com/90cos/training/courses/external/actp-linux/-/tree/master/actp-linux-kernel.rel-link.json"
		},
		{
			"ksat_id": "S0325",
			"item_proficiency": "",
			"url": "https://gitlab.com/90cos/training/courses/external/actp-linux/-/tree/master/actp-linux-kernel.rel-link.json"
		},
		{
			"ksat_id": "S0326",
			"item_proficiency": "",
			"url": "https://gitlab.com/90cos/training/courses/external/actp-linux/-/tree/master/actp-linux-kernel.rel-link.json"
		},
		{
			"ksat_id": "S0327",
			"item_proficiency": "",
			"url": "https://gitlab.com/90cos/training/courses/external/actp-linux/-/tree/master/actp-linux-kernel.rel-link.json"
		},
		{
			"ksat_id": "A0554",
			"item_proficiency": "",
			"url": "https://gitlab.com/90cos/training/courses/external/actp-linux/-/tree/master/actp-linux-kernel.rel-link.json"
		},
		{
			"ksat_id": "S0329",
			"item_proficiency": "",
			"url": "https://gitlab.com/90cos/training/courses/external/actp-linux/-/tree/master/actp-linux-kernel.rel-link.json"
		},
		{
			"ksat_id": "S0330",
			"item_proficiency": "",
			"url": "https://gitlab.com/90cos/training/courses/external/actp-linux/-/tree/master/actp-linux-kernel.rel-link.json"
		},
		{
			"ksat_id": "S0331",
			"item_proficiency": "",
			"url": "https://gitlab.com/90cos/training/courses/external/actp-linux/-/tree/master/actp-linux-kernel.rel-link.json"
		},
		{
			"ksat_id": "S0332",
			"item_proficiency": "",
			"url": "https://gitlab.com/90cos/training/courses/external/actp-linux/-/tree/master/actp-linux-kernel.rel-link.json"
		},
		{
			"ksat_id": "S0333",
			"item_proficiency": "",
			"url": "https://gitlab.com/90cos/training/courses/external/actp-linux/-/tree/master/actp-linux-kernel.rel-link.json"
		},
		{
			"ksat_id": "A0560",
			"item_proficiency": "",
			"url": "https://gitlab.com/90cos/training/courses/external/actp-linux/-/tree/master/actp-linux-kernel.rel-link.json"
		},
		{
			"ksat_id": "A0561",
			"item_proficiency": "",
			"url": "https://gitlab.com/90cos/training/courses/external/actp-linux/-/tree/master/actp-linux-kernel.rel-link.json"
		},
		{
			"ksat_id": "S0026",
			"item_proficiency": "",
			"url": "https://gitlab.com/90cos/training/courses/external/actp-linux/-/tree/master/actp-linux-kernel.rel-link.json"
		},
		{
			"ksat_id": "A0563",
			"item_proficiency": "",
			"url": "https://gitlab.com/90cos/training/courses/external/actp-linux/-/tree/master/actp-linux-kernel.rel-link.json"
		},
		{
			"ksat_id": "A0564",
			"item_proficiency": "",
			"url": "https://gitlab.com/90cos/training/courses/external/actp-linux/-/tree/master/actp-linux-kernel.rel-link.json"
		},
		{
			"ksat_id": "K0496",
			"item_proficiency": "",
			"url": "https://gitlab.com/90cos/training/courses/external/actp-linux/-/tree/master/actp-linux-kernel.rel-link.json"
		},
		{
			"ksat_id": "S0298",
			"item_proficiency": "",
			"url": "https://gitlab.com/90cos/training/courses/external/actp-linux/-/tree/master/actp-linux-kernel.rel-link.json"
		},
		{
			"ksat_id": "S0299",
			"item_proficiency": "",
			"url": "https://gitlab.com/90cos/training/courses/external/actp-linux/-/tree/master/actp-linux-kernel.rel-link.json"
		},
		{
			"ksat_id": "S0296",
			"item_proficiency": "",
			"url": "https://gitlab.com/90cos/training/courses/external/actp-linux/-/tree/master/actp-linux-kernel.rel-link.json"
		}
	],
	"network": "commercial",
	"course": "ACTP_Linux",
	"module": "actp-linux",
	"topic": "Kernel",
	"subject": "actp-linux-kernel",
	"work-roles": [
		"Senior-Dev-Linux"
	],
	"map_for": "training",
	"topic_path": "./",
	"created_on": "2020-06-16",
	"updated_on": "2020-07-08"
},
{
	"_id": {
		"$oid": "5ee9250a761cf87371cf3100"
	},
	"KSATs": [
		{
			"ksat_id": "T0022",
			"item_proficiency": "",
			"url": "https://gitlab.com/90cos/training/courses/external/actp-linux/-/tree/master/actp-linux-vulnerability-research.rel-link.json"
		}
	],
	"network": "commercial",
	"course": "ACTP_Linux",
	"module": "actp-linux",
	"topic": "Vulnerability-Research",
	"subject": "actp-linux-vulnerability-research",
	"work-roles": [
		"Senior-Dev-Linux"
	],
	"map_for": "training",
	"topic_path": "./",
	"created_on": "2020-06-16"
},
{
	"_id": {
		"$oid": "5ee9250a761cf87371cf3101"
	},
	"KSATs": [
		{
			"ksat_id": "A0610",
			"item_proficiency": "",
			"url": "https://gitlab.com/90cos/training/courses/external/actp-linux/-/tree/master/actp-linux-reverse-engineering.rel-link.json"
		},
		{
			"ksat_id": "A0611",
			"item_proficiency": "",
			"url": "https://gitlab.com/90cos/training/courses/external/actp-linux/-/tree/master/actp-linux-reverse-engineering.rel-link.json"
		},
		{
			"ksat_id": "A0612",
			"item_proficiency": "",
			"url": "https://gitlab.com/90cos/training/courses/external/actp-linux/-/tree/master/actp-linux-reverse-engineering.rel-link.json"
		},
		{
			"ksat_id": "A0615",
			"item_proficiency": "",
			"url": "https://gitlab.com/90cos/training/courses/external/actp-linux/-/tree/master/actp-linux-reverse-engineering.rel-link.json"
		},
		{
			"ksat_id": "A0616",
			"item_proficiency": "",
			"url": "https://gitlab.com/90cos/training/courses/external/actp-linux/-/tree/master/actp-linux-reverse-engineering.rel-link.json"
		},
		{
			"ksat_id": "A0613",
			"item_proficiency": "",
			"url": "https://gitlab.com/90cos/training/courses/external/actp-linux/-/tree/master/actp-linux-reverse-engineering.rel-link.json"
		},
		{
			"ksat_id": "A0614",
			"item_proficiency": "",
			"url": "https://gitlab.com/90cos/training/courses/external/actp-linux/-/tree/master/actp-linux-reverse-engineering.rel-link.json"
		},
		{
			"ksat_id": "K0692",
			"item_proficiency": "",
			"url": "https://gitlab.com/90cos/training/courses/external/actp-linux/-/tree/master/actp-linux-reverse-engineering.rel-link.json"
		},
		{
			"ksat_id": "K0693",
			"item_proficiency": "",
			"url": "https://gitlab.com/90cos/training/courses/external/actp-linux/-/tree/master/actp-linux-reverse-engineering.rel-link.json"
		},
		{
			"ksat_id": "K0694",
			"item_proficiency": "",
			"url": "https://gitlab.com/90cos/training/courses/external/actp-linux/-/tree/master/actp-linux-reverse-engineering.rel-link.json"
		},
		{
			"ksat_id": "K0691",
			"item_proficiency": "",
			"url": "https://gitlab.com/90cos/training/courses/external/actp-linux/-/tree/master/actp-linux-reverse-engineering.rel-link.json"
		},
		{
			"ksat_id": "T0018",
			"item_proficiency": "",
			"url": "https://gitlab.com/90cos/training/courses/external/actp-linux/-/tree/master/actp-linux-reverse-engineering.rel-link.json"
		},
		{
			"ksat_id": "T0020",
			"item_proficiency": "",
			"url": "https://gitlab.com/90cos/training/courses/external/actp-linux/-/tree/master/actp-linux-reverse-engineering.rel-link.json"
		},
		{
			"ksat_id": "T0021",
			"item_proficiency": "",
			"url": "https://gitlab.com/90cos/training/courses/external/actp-linux/-/tree/master/actp-linux-reverse-engineering.rel-link.json"
		}
	],
	"network": "commercial",
	"course": "ACTP_Linux",
	"module": "actp-linux",
	"topic": "Reverse-Engineering",
	"subject": "actp-linux-reverse-engineering",
	"work-roles": [
		"Senior-Dev-Linux"
	],
	"map_for": "training",
	"topic_path": "./",
	"created_on": "2020-06-16"
},
{
	"_id": {
		"$oid": "5ee9250a761cf87371cf3102"
	},
	"KSATs": [
		{
			"ksat_id": "K0610",
			"item_proficiency": "",
			"url": "https://gitlab.com/90cos/training/courses/external/actp-linux/-/tree/master/actp-linux-networking.rel-link.json"
		},
		{
			"ksat_id": "K0611",
			"item_proficiency": "",
			"url": "https://gitlab.com/90cos/training/courses/external/actp-linux/-/tree/master/actp-linux-networking.rel-link.json"
		},
		{
			"ksat_id": "K0612",
			"item_proficiency": "",
			"url": "https://gitlab.com/90cos/training/courses/external/actp-linux/-/tree/master/actp-linux-networking.rel-link.json"
		},
		{
			"ksat_id": "K0613",
			"item_proficiency": "",
			"url": "https://gitlab.com/90cos/training/courses/external/actp-linux/-/tree/master/actp-linux-networking.rel-link.json"
		},
		{
			"ksat_id": "K0614",
			"item_proficiency": "",
			"url": "https://gitlab.com/90cos/training/courses/external/actp-linux/-/tree/master/actp-linux-networking.rel-link.json"
		},
		{
			"ksat_id": "K0615",
			"item_proficiency": "",
			"url": "https://gitlab.com/90cos/training/courses/external/actp-linux/-/tree/master/actp-linux-networking.rel-link.json"
		},
		{
			"ksat_id": "K0616",
			"item_proficiency": "",
			"url": "https://gitlab.com/90cos/training/courses/external/actp-linux/-/tree/master/actp-linux-networking.rel-link.json"
		},
		{
			"ksat_id": "K0617",
			"item_proficiency": "",
			"url": "https://gitlab.com/90cos/training/courses/external/actp-linux/-/tree/master/actp-linux-networking.rel-link.json"
		},
		{
			"ksat_id": "K0618",
			"item_proficiency": "",
			"url": "https://gitlab.com/90cos/training/courses/external/actp-linux/-/tree/master/actp-linux-networking.rel-link.json"
		},
		{
			"ksat_id": "A0626",
			"item_proficiency": "",
			"url": "https://gitlab.com/90cos/training/courses/external/actp-linux/-/tree/master/actp-linux-networking.rel-link.json"
		},
		{
			"ksat_id": "A0627",
			"item_proficiency": "",
			"url": "https://gitlab.com/90cos/training/courses/external/actp-linux/-/tree/master/actp-linux-networking.rel-link.json"
		},
		{
			"ksat_id": "A0628",
			"item_proficiency": "",
			"url": "https://gitlab.com/90cos/training/courses/external/actp-linux/-/tree/master/actp-linux-networking.rel-link.json"
		},
		{
			"ksat_id": "A0630",
			"item_proficiency": "",
			"url": "https://gitlab.com/90cos/training/courses/external/actp-linux/-/tree/master/actp-linux-networking.rel-link.json"
		},
		{
			"ksat_id": "A0631",
			"item_proficiency": "",
			"url": "https://gitlab.com/90cos/training/courses/external/actp-linux/-/tree/master/actp-linux-networking.rel-link.json"
		},
		{
			"ksat_id": "S0301",
			"item_proficiency": "",
			"url": "https://gitlab.com/90cos/training/courses/external/actp-linux/-/tree/master/actp-linux-networking.rel-link.json"
		},
		{
			"ksat_id": "A0604",
			"item_proficiency": "",
			"url": "https://gitlab.com/90cos/training/courses/external/actp-linux/-/tree/master/actp-linux-networking.rel-link.json"
		},
		{
			"ksat_id": "A0605",
			"item_proficiency": "",
			"url": "https://gitlab.com/90cos/training/courses/external/actp-linux/-/tree/master/actp-linux-networking.rel-link.json"
		},
		{
			"ksat_id": "A0606",
			"item_proficiency": "",
			"url": "https://gitlab.com/90cos/training/courses/external/actp-linux/-/tree/master/actp-linux-networking.rel-link.json"
		},
		{
			"ksat_id": "A0632",
			"item_proficiency": "",
			"url": "https://gitlab.com/90cos/training/courses/external/actp-linux/-/tree/master/actp-linux-networking.rel-link.json"
		},
		{
			"ksat_id": "A0607",
			"item_proficiency": "",
			"url": "https://gitlab.com/90cos/training/courses/external/actp-linux/-/tree/master/actp-linux-networking.rel-link.json"
		},
		{
			"ksat_id": "A0608",
			"item_proficiency": "",
			"url": "https://gitlab.com/90cos/training/courses/external/actp-linux/-/tree/master/actp-linux-networking.rel-link.json"
		},
		{
			"ksat_id": "T0011",
			"item_proficiency": "",
			"url": "https://gitlab.com/90cos/training/courses/external/actp-linux/-/tree/master/actp-linux-networking.rel-link.json"
		}
	],
	"network": "commercial",
	"course": "ACTP_Linux",
	"module": "actp-linux",
	"topic": "Networking",
	"subject": "actp-linux-networking",
	"work-roles": [
		"Senior-Dev-Linux"
	],
	"map_for": "training",
	"topic_path": "./",
	"created_on": "2020-06-16",
	"updated_on": "2020-07-06"
},
{
	"_id": {
		"$oid": "5ee9250a761cf87371cf3103"
	},
	"KSATs": [
		{
			"ksat_id": "K0497",
			"item_proficiency": "",
			"url": "https://gitlab.com/90cos/training/courses/external/actp-linux/-/tree/master/actp-linux-operating-system.rel-link.json"
		},
		{
			"ksat_id": "K0499",
			"item_proficiency": "",
			"url": "https://gitlab.com/90cos/training/courses/external/actp-linux/-/tree/master/actp-linux-operating-system.rel-link.json"
		}
	],
	"network": "commercial",
	"course": "ACTP_Linux",
	"module": "actp-linux",
	"topic": "Operating-System",
	"subject": "actp-linux-operating-system",
	"work-roles": [
		"Senior-Dev-Linux"
	],
	"map_for": "training",
	"topic_path": "./",
	"created_on": "2020-06-16"
},
{
	"_id": {
		"$oid": "5ee9250a761cf87371cf3104"
	},
	"KSATs": [
		{
			"ksat_id": "S0105",
			"item_proficiency": "",
			"url": "https://gitlab.com/90cos/training/courses/external/actp-linux/-/tree/master/actp-linux-assembly.rel-link.json"
		},
		{
			"ksat_id": "K0524",
			"item_proficiency": "",
			"url": "https://gitlab.com/90cos/training/courses/external/actp-linux/-/tree/master/actp-linux-assembly.rel-link.json"
		},
		{
			"ksat_id": "K0525",
			"item_proficiency": "",
			"url": "https://gitlab.com/90cos/training/courses/external/actp-linux/-/tree/master/actp-linux-assembly.rel-link.json"
		},
		{
			"ksat_id": "K0526",
			"item_proficiency": "",
			"url": "https://gitlab.com/90cos/training/courses/external/actp-linux/-/tree/master/actp-linux-assembly.rel-link.json"
		},
		{
			"ksat_id": "K0527",
			"item_proficiency": "",
			"url": "https://gitlab.com/90cos/training/courses/external/actp-linux/-/tree/master/actp-linux-assembly.rel-link.json"
		},
		{
			"ksat_id": "K0528",
			"item_proficiency": "",
			"url": "https://gitlab.com/90cos/training/courses/external/actp-linux/-/tree/master/actp-linux-assembly.rel-link.json"
		},
		{
			"ksat_id": "K0529",
			"item_proficiency": "",
			"url": "https://gitlab.com/90cos/training/courses/external/actp-linux/-/tree/master/actp-linux-assembly.rel-link.json"
		},
		{
			"ksat_id": "K0530",
			"item_proficiency": "",
			"url": "https://gitlab.com/90cos/training/courses/external/actp-linux/-/tree/master/actp-linux-assembly.rel-link.json"
		},
		{
			"ksat_id": "S0133",
			"item_proficiency": "",
			"url": "https://gitlab.com/90cos/training/courses/external/actp-linux/-/tree/master/actp-linux-assembly.rel-link.json"
		},
		{
			"ksat_id": "S0125",
			"item_proficiency": "",
			"url": "https://gitlab.com/90cos/training/courses/external/actp-linux/-/tree/master/actp-linux-assembly.rel-link.json"
		},
		{
			"ksat_id": "S0134",
			"item_proficiency": "",
			"url": "https://gitlab.com/90cos/training/courses/external/actp-linux/-/tree/master/actp-linux-assembly.rel-link.json"
		},
		{
			"ksat_id": "S0135",
			"item_proficiency": "",
			"url": "https://gitlab.com/90cos/training/courses/external/actp-linux/-/tree/master/actp-linux-assembly.rel-link.json"
		},
		{
			"ksat_id": "S0123",
			"item_proficiency": "",
			"url": "https://gitlab.com/90cos/training/courses/external/actp-linux/-/tree/master/actp-linux-assembly.rel-link.json"
		},
		{
			"ksat_id": "S0119",
			"item_proficiency": "",
			"url": "https://gitlab.com/90cos/training/courses/external/actp-linux/-/tree/master/actp-linux-assembly.rel-link.json"
		},
		{
			"ksat_id": "S0136",
			"item_proficiency": "",
			"url": "https://gitlab.com/90cos/training/courses/external/actp-linux/-/tree/master/actp-linux-assembly.rel-link.json"
		},
		{
			"ksat_id": "S0137",
			"item_proficiency": "",
			"url": "https://gitlab.com/90cos/training/courses/external/actp-linux/-/tree/master/actp-linux-assembly.rel-link.json"
		},
		{
			"ksat_id": "S0138",
			"item_proficiency": "",
			"url": "https://gitlab.com/90cos/training/courses/external/actp-linux/-/tree/master/actp-linux-assembly.rel-link.json"
		},
		{
			"ksat_id": "S0129",
			"item_proficiency": "",
			"url": "https://gitlab.com/90cos/training/courses/external/actp-linux/-/tree/master/actp-linux-assembly.rel-link.json"
		},
		{
			"ksat_id": "S0139",
			"item_proficiency": "",
			"url": "https://gitlab.com/90cos/training/courses/external/actp-linux/-/tree/master/actp-linux-assembly.rel-link.json"
		},
		{
			"ksat_id": "S0140",
			"item_proficiency": "",
			"url": "https://gitlab.com/90cos/training/courses/external/actp-linux/-/tree/master/actp-linux-assembly.rel-link.json"
		},
		{
			"ksat_id": "S0141",
			"item_proficiency": "",
			"url": "https://gitlab.com/90cos/training/courses/external/actp-linux/-/tree/master/actp-linux-assembly.rel-link.json"
		},
		{
			"ksat_id": "S0142",
			"item_proficiency": "",
			"url": "https://gitlab.com/90cos/training/courses/external/actp-linux/-/tree/master/actp-linux-assembly.rel-link.json"
		},
		{
			"ksat_id": "S0130",
			"item_proficiency": "",
			"url": "https://gitlab.com/90cos/training/courses/external/actp-linux/-/tree/master/actp-linux-assembly.rel-link.json"
		},
		{
			"ksat_id": "S0126",
			"item_proficiency": "",
			"url": "https://gitlab.com/90cos/training/courses/external/actp-linux/-/tree/master/actp-linux-assembly.rel-link.json"
		},
		{
			"ksat_id": "T0017",
			"item_proficiency": "",
			"url": "https://gitlab.com/90cos/training/courses/external/actp-linux/-/tree/master/actp-linux-assembly.rel-link.json"
		}
	],
	"network": "commercial",
	"course": "ACTP_Linux",
	"module": "actp-linux",
	"topic": "Assembly",
	"subject": "actp-linux-assembly",
	"work-roles": [
		"Senior-Dev-Linux"
	],
	"map_for": "training",
	"topic_path": "./",
	"created_on": "2020-06-16"
}]

