[{
	"_id": {
		"$oid": "5ee92513580c86e868bd6f66"
	},
	"KSATs": [
		{
			"ksat_id": "S0213",
			"item_proficiency": "3",
			"url": "https://gitlab.com/90cos/training/material/see-basics/-/tree/master/see_training.rel-link.json"
		},
		{
			"ksat_id": "S0214",
			"item_proficiency": "3",
			"url": "https://gitlab.com/90cos/training/material/see-basics/-/tree/master/see_training.rel-link.json"
		},
		{
			"ksat_id": "S0216",
			"item_proficiency": "3",
			"url": "https://gitlab.com/90cos/training/material/see-basics/-/tree/master/see_training.rel-link.json"
		},
		{
			"ksat_id": "S0217",
			"item_proficiency": "3",
			"url": "https://gitlab.com/90cos/training/material/see-basics/-/tree/master/see_training.rel-link.json"
		},
		{
			"ksat_id": "S0218",
			"item_proficiency": "3",
			"url": "https://gitlab.com/90cos/training/material/see-basics/-/tree/master/see_training.rel-link.json"
		},
		{
			"ksat_id": "S0219",
			"item_proficiency": "3",
			"url": "https://gitlab.com/90cos/training/material/see-basics/-/tree/master/see_training.rel-link.json"
		},
		{
			"ksat_id": "S0220",
			"item_proficiency": "3",
			"url": "https://gitlab.com/90cos/training/material/see-basics/-/tree/master/see_training.rel-link.json"
		},
		{
			"ksat_id": "S0221",
			"item_proficiency": "3",
			"url": "https://gitlab.com/90cos/training/material/see-basics/-/tree/master/see_training.rel-link.json"
		},
		{
			"ksat_id": "S0222",
			"item_proficiency": "3",
			"url": "https://gitlab.com/90cos/training/material/see-basics/-/tree/master/see_training.rel-link.json"
		},
		{
			"ksat_id": "S0223",
			"item_proficiency": "3",
			"url": "https://gitlab.com/90cos/training/material/see-basics/-/tree/master/see_training.rel-link.json"
		},
		{
			"ksat_id": "S0224",
			"item_proficiency": "3",
			"url": "https://gitlab.com/90cos/training/material/see-basics/-/tree/master/see_training.rel-link.json"
		},
		{
			"ksat_id": "S0225",
			"item_proficiency": "3",
			"url": "https://gitlab.com/90cos/training/material/see-basics/-/tree/master/see_training.rel-link.json"
		},
		{
			"ksat_id": "S0226",
			"item_proficiency": "3",
			"url": "https://gitlab.com/90cos/training/material/see-basics/-/tree/master/see_training.rel-link.json"
		},
		{
			"ksat_id": "S0227",
			"item_proficiency": "3",
			"url": "https://gitlab.com/90cos/training/material/see-basics/-/tree/master/see_training.rel-link.json"
		},
		{
			"ksat_id": "S0228",
			"item_proficiency": "3",
			"url": "https://gitlab.com/90cos/training/material/see-basics/-/tree/master/see_training.rel-link.json"
		},
		{
			"ksat_id": "S0229",
			"item_proficiency": "3",
			"url": "https://gitlab.com/90cos/training/material/see-basics/-/tree/master/see_training.rel-link.json"
		},
		{
			"ksat_id": "S0230",
			"item_proficiency": "3",
			"url": "https://gitlab.com/90cos/training/material/see-basics/-/tree/master/see_training.rel-link.json"
		},
		{
			"ksat_id": "S0231",
			"item_proficiency": "3",
			"url": "https://gitlab.com/90cos/training/material/see-basics/-/tree/master/see_training.rel-link.json"
		},
		{
			"ksat_id": "S0232",
			"item_proficiency": "3",
			"url": "https://gitlab.com/90cos/training/material/see-basics/-/tree/master/see_training.rel-link.json"
		},
		{
			"ksat_id": "S0233",
			"item_proficiency": "3",
			"url": "https://gitlab.com/90cos/training/material/see-basics/-/tree/master/see_training.rel-link.json"
		},
		{
			"ksat_id": "S0235",
			"item_proficiency": "3",
			"url": "https://gitlab.com/90cos/training/material/see-basics/-/tree/master/see_training.rel-link.json"
		},
		{
			"ksat_id": "S0236",
			"item_proficiency": "3",
			"url": "https://gitlab.com/90cos/training/material/see-basics/-/tree/master/see_training.rel-link.json"
		},
		{
			"ksat_id": "S0237",
			"item_proficiency": "3",
			"url": "https://gitlab.com/90cos/training/material/see-basics/-/tree/master/see_training.rel-link.json"
		},
		{
			"ksat_id": "S0238",
			"item_proficiency": "3",
			"url": "https://gitlab.com/90cos/training/material/see-basics/-/tree/master/see_training.rel-link.json"
		},
		{
			"ksat_id": "S0239",
			"item_proficiency": "3",
			"url": "https://gitlab.com/90cos/training/material/see-basics/-/tree/master/see_training.rel-link.json"
		}
	],
	"course": "SEE",
	"module": "see-basics",
	"topic": "SEE 101",
	"subject": "see_training",
	"lecture_time": 60,
	"perf_demo_time": 0,
	"references": [],
	"lesson_objectives": [],
	"performance_objectives": [],
	"module_id": "SEE_Training",
	"network": "NIPR",
	"work-roles": [
		"Basic-SEE"
	],
	"map_for": "training",
	"topic_path": "./",
	"created_on": "2020-06-16",
	"updated_on": "2020-06-23"
}]

