[{
	"_id": {
		"$oid": "5ee9250a761cf87371cf3113"
	},
	"topic": "Product Owner",
	"KSATs": [
		{
			"ksat_id": "K0366",
			"item_proficiency": "A",
			"url": "https://gitlab.com/90cos/product-owner-po-eval-study/basic-po/-/tree/master/knowledge/po-metrics_2/README.md"
		}
	],
	"complexity": 1,
	"revision_number": 1,
	"disabled": false,
	"provisioned": 0,
	"attempts": 0,
	"passes": 0,
	"failures": 0,
	"test_id": "Basic-Po",
	"test_type": "knowledge",
	"question_id": "BPO_0009",
	"network": "commercial",
	"question_name": "po-metrics_2",
	"language": "",
	"question_proficiency": "B",
	"estimated_time_to_complete": 2.25,
	"created_on": "2020-06-16",
	"updated_on": "2020-01-08 17:51:10",
	"work-roles": [
		"Basic-Po"
	],
	"map_for": "eval"
},
{
	"_id": {
		"$oid": "5ee9250a761cf87371cf3114"
	},
	"topic": "Product Owner",
	"KSATs": [
		{
			"ksat_id": "K0367",
			"item_proficiency": "B",
			"url": "https://gitlab.com/90cos/product-owner-po-eval-study/basic-po/-/tree/master/knowledge/po-scrum_5/README.md"
		},
		{
			"ksat_id": "K0649",
			"item_proficiency": "C",
			"url": "https://gitlab.com/90cos/product-owner-po-eval-study/basic-po/-/tree/master/knowledge/po-scrum_5/README.md"
		}
	],
	"complexity": 1,
	"revision_number": 1,
	"disabled": false,
	"provisioned": 0,
	"attempts": 0,
	"passes": 0,
	"failures": 0,
	"test_id": "Basic-Po",
	"test_type": "knowledge",
	"question_id": "BPO_0054",
	"network": "commercial",
	"question_name": "po-scrum_5",
	"language": "",
	"question_proficiency": "C",
	"estimated_time_to_complete": 2,
	"created_on": "2020-06-16",
	"updated_on": "2020-01-08 17:51:10",
	"work-roles": [
		"Basic-Po"
	],
	"map_for": "eval"
},
{
	"_id": {
		"$oid": "5ee9250a761cf87371cf3115"
	},
	"topic": "Product Owner",
	"KSATs": [
		{
			"ksat_id": "K0367",
			"item_proficiency": "B",
			"url": "https://gitlab.com/90cos/product-owner-po-eval-study/basic-po/-/tree/master/knowledge/po-scrum-master_1/README.md"
		}
	],
	"complexity": 1,
	"revision_number": 1,
	"disabled": false,
	"provisioned": 0,
	"attempts": 0,
	"passes": 0,
	"failures": 0,
	"test_id": "Basic-Po",
	"test_type": "knowledge",
	"question_id": "BPO_0049",
	"network": "commercial",
	"question_name": "po-scrum-master_1",
	"language": "",
	"question_proficiency": "B",
	"estimated_time_to_complete": 2,
	"created_on": "2020-06-16",
	"updated_on": "2019-12-11 20:11:44",
	"work-roles": [
		"Basic-Po"
	],
	"map_for": "eval"
},
{
	"_id": {
		"$oid": "5ee9250a761cf87371cf3116"
	},
	"topic": "Product Owner",
	"KSATs": [
		{
			"ksat_id": "K0664",
			"item_proficiency": "B",
			"url": "https://gitlab.com/90cos/product-owner-po-eval-study/basic-po/-/tree/master/knowledge/po-product-backlog_2/README.md"
		}
	],
	"complexity": 1,
	"revision_number": 1,
	"disabled": false,
	"provisioned": 0,
	"attempts": 0,
	"passes": 0,
	"failures": 0,
	"test_id": "Basic-Po",
	"test_type": "knowledge",
	"question_id": "BPO_0015",
	"network": "commercial",
	"question_name": "po-product-backlog_2",
	"language": "",
	"question_proficiency": "B",
	"estimated_time_to_complete": 2,
	"created_on": "2020-06-16",
	"updated_on": "2019-12-10 18:13:19",
	"work-roles": [
		"Basic-Po"
	],
	"map_for": "eval"
},
{
	"_id": {
		"$oid": "5ee9250a761cf87371cf3117"
	},
	"topic": "Product Owner",
	"KSATs": [
		{
			"ksat_id": "K0367",
			"item_proficiency": "B",
			"url": "https://gitlab.com/90cos/product-owner-po-eval-study/basic-po/-/tree/master/knowledge/po-sprint-backlog_6/README.md"
		}
	],
	"complexity": 1,
	"revision_number": 1,
	"disabled": false,
	"provisioned": 0,
	"attempts": 0,
	"passes": 0,
	"failures": 0,
	"test_id": "Basic-Po",
	"test_type": "knowledge",
	"question_id": "BPO_0058",
	"network": "commercial",
	"question_name": "po-sprint-backlog_6",
	"language": "",
	"question_proficiency": "B",
	"estimated_time_to_complete": 2,
	"created_on": "2020-06-16",
	"updated_on": "2019-12-11 20:11:44",
	"work-roles": [
		"Basic-Po"
	],
	"map_for": "eval"
},
{
	"_id": {
		"$oid": "5ee9250a761cf87371cf3118"
	},
	"topic": "Product Owner",
	"KSATs": [
		{
			"ksat_id": "K0396",
			"item_proficiency": "B",
			"url": "https://gitlab.com/90cos/product-owner-po-eval-study/basic-po/-/tree/master/knowledge/po-sprint-planning_1/README.md"
		}
	],
	"complexity": 1,
	"revision_number": 1,
	"disabled": false,
	"provisioned": 0,
	"attempts": 0,
	"passes": 0,
	"failures": 0,
	"test_id": "Basic-Po",
	"test_type": "knowledge",
	"question_id": "BPO_0059",
	"network": "commercial",
	"question_name": "po-sprint-planning_1",
	"language": "",
	"question_proficiency": "B",
	"estimated_time_to_complete": 2,
	"created_on": "2020-06-16",
	"updated_on": "2020-01-08 17:51:10",
	"work-roles": [
		"Basic-Po"
	],
	"map_for": "eval"
},
{
	"_id": {
		"$oid": "5ee9250a761cf87371cf3119"
	},
	"topic": "Product Owner",
	"KSATs": [
		{
			"ksat_id": "K0366",
			"item_proficiency": "A",
			"url": "https://gitlab.com/90cos/product-owner-po-eval-study/basic-po/-/tree/master/knowledge/po-responsibilities_14/README.md"
		},
		{
			"ksat_id": "K0367",
			"item_proficiency": "B",
			"url": "https://gitlab.com/90cos/product-owner-po-eval-study/basic-po/-/tree/master/knowledge/po-responsibilities_14/README.md"
		},
		{
			"ksat_id": "K0649",
			"item_proficiency": "C",
			"url": "https://gitlab.com/90cos/product-owner-po-eval-study/basic-po/-/tree/master/knowledge/po-responsibilities_14/README.md"
		}
	],
	"complexity": 1,
	"revision_number": 1,
	"disabled": false,
	"provisioned": 0,
	"attempts": 0,
	"passes": 0,
	"failures": 0,
	"test_id": "Basic-Po",
	"test_type": "knowledge",
	"question_id": "BPO_0045",
	"network": "commercial",
	"question_name": "po-responsibilities_14",
	"language": "",
	"question_proficiency": "C",
	"estimated_time_to_complete": 2,
	"created_on": "2020-06-16",
	"updated_on": "2019-12-11 20:11:44",
	"work-roles": [
		"Basic-Po"
	],
	"map_for": "eval"
},
{
	"_id": {
		"$oid": "5ee9250a761cf87371cf311a"
	},
	"topic": "Product Owner",
	"KSATs": [
		{
			"ksat_id": "K0382",
			"item_proficiency": "B",
			"url": "https://gitlab.com/90cos/product-owner-po-eval-study/basic-po/-/tree/master/knowledge/po-responsibilities_5/README.md"
		}
	],
	"complexity": 1,
	"revision_number": 1,
	"disabled": false,
	"provisioned": 0,
	"attempts": 0,
	"passes": 0,
	"failures": 0,
	"test_id": "Basic-Po",
	"test_type": "knowledge",
	"question_id": "BPO_0037",
	"network": "commercial",
	"question_name": "po-responsibilities_5",
	"language": "",
	"question_proficiency": "B",
	"estimated_time_to_complete": 2,
	"created_on": "2020-06-16",
	"updated_on": "2020-01-08 17:51:10",
	"work-roles": [
		"Basic-Po"
	],
	"map_for": "eval"
},
{
	"_id": {
		"$oid": "5ee9250a761cf87371cf311b"
	},
	"topic": "Product Owner",
	"KSATs": [
		{
			"ksat_id": "K0419",
			"item_proficiency": "B",
			"url": "https://gitlab.com/90cos/product-owner-po-eval-study/basic-po/-/tree/master/knowledge/po-backlog-refinement_1/README.md"
		},
		{
			"ksat_id": "K0422",
			"item_proficiency": "B",
			"url": "https://gitlab.com/90cos/product-owner-po-eval-study/basic-po/-/tree/master/knowledge/po-backlog-refinement_1/README.md"
		}
	],
	"complexity": 1,
	"revision_number": 1,
	"disabled": false,
	"provisioned": 0,
	"attempts": 0,
	"passes": 0,
	"failures": 0,
	"test_id": "Basic-Po",
	"test_type": "knowledge",
	"question_id": "BPO_0001",
	"network": "commercial",
	"question_name": "po-backlog-refinement_1",
	"language": "",
	"question_proficiency": "B",
	"estimated_time_to_complete": 2.25,
	"created_on": "2020-06-16",
	"updated_on": "2019-12-11 20:11:44",
	"work-roles": [
		"Basic-Po"
	],
	"map_for": "eval"
},
{
	"_id": {
		"$oid": "5ee9250a761cf87371cf311c"
	},
	"topic": "Product Owner",
	"KSATs": [
		{
			"ksat_id": "K0366",
			"item_proficiency": "A",
			"url": "https://gitlab.com/90cos/product-owner-po-eval-study/basic-po/-/tree/master/knowledge/po-backlog-refinement_2/README.md"
		}
	],
	"complexity": 1,
	"revision_number": 1,
	"disabled": false,
	"provisioned": 0,
	"attempts": 0,
	"passes": 0,
	"failures": 0,
	"test_id": "Basic-Po",
	"test_type": "knowledge",
	"question_id": "BPO_0002",
	"network": "commercial",
	"question_name": "po-backlog-refinement_2",
	"language": "",
	"question_proficiency": "B",
	"estimated_time_to_complete": 2.25,
	"created_on": "2020-06-16",
	"updated_on": "2019-12-11 20:11:44",
	"work-roles": [
		"Basic-Po"
	],
	"map_for": "eval"
},
{
	"_id": {
		"$oid": "5ee9250a761cf87371cf311d"
	},
	"topic": "Product Owner",
	"KSATs": [
		{
			"ksat_id": "K0416",
			"item_proficiency": "B",
			"url": "https://gitlab.com/90cos/product-owner-po-eval-study/basic-po/-/tree/master/knowledge/po-stakeholder_1/README.md"
		}
	],
	"complexity": 1,
	"revision_number": 1,
	"disabled": false,
	"provisioned": 0,
	"attempts": 0,
	"passes": 0,
	"failures": 0,
	"test_id": "Basic-Po",
	"test_type": "knowledge",
	"question_id": "BPO_0062",
	"network": "commercial",
	"question_name": "po-stakeholder_1",
	"language": "",
	"question_proficiency": "B",
	"estimated_time_to_complete": 2,
	"created_on": "2020-06-16",
	"updated_on": "2019-12-11 20:11:44",
	"work-roles": [
		"Basic-Po"
	],
	"map_for": "eval"
},
{
	"_id": {
		"$oid": "5ee9250a761cf87371cf311e"
	},
	"topic": "Product Owner",
	"KSATs": [
		{
			"ksat_id": "K0366",
			"item_proficiency": "A",
			"url": "https://gitlab.com/90cos/product-owner-po-eval-study/basic-po/-/tree/master/knowledge/po-product-backlog_12/README.md"
		},
		{
			"ksat_id": "K0367",
			"item_proficiency": "B",
			"url": "https://gitlab.com/90cos/product-owner-po-eval-study/basic-po/-/tree/master/knowledge/po-product-backlog_12/README.md"
		}
	],
	"complexity": 1,
	"revision_number": 1,
	"disabled": false,
	"provisioned": 0,
	"attempts": 0,
	"passes": 0,
	"failures": 0,
	"test_id": "Basic-Po",
	"test_type": "knowledge",
	"question_id": "BPO_0025",
	"network": "commercial",
	"question_name": "po-product-backlog_12",
	"language": "",
	"question_proficiency": "B",
	"estimated_time_to_complete": 2,
	"created_on": "2020-06-16",
	"updated_on": "2019-12-11 20:11:44",
	"work-roles": [
		"Basic-Po"
	],
	"map_for": "eval"
},
{
	"_id": {
		"$oid": "5ee9250a761cf87371cf311f"
	},
	"topic": "Product Owner",
	"KSATs": [
		{
			"ksat_id": "K0367",
			"item_proficiency": "B",
			"url": "https://gitlab.com/90cos/product-owner-po-eval-study/basic-po/-/tree/master/knowledge/po-scrum_4/README.md"
		}
	],
	"complexity": 1,
	"revision_number": 1,
	"disabled": false,
	"provisioned": 0,
	"attempts": 0,
	"passes": 0,
	"failures": 0,
	"test_id": "Basic-Po",
	"test_type": "knowledge",
	"question_id": "BPO_0053",
	"network": "commercial",
	"question_name": "po-scrum_4",
	"language": "",
	"question_proficiency": "B",
	"estimated_time_to_complete": 2,
	"created_on": "2020-06-16",
	"updated_on": "2020-01-08 17:51:10",
	"work-roles": [
		"Basic-Po"
	],
	"map_for": "eval"
},
{
	"_id": {
		"$oid": "5ee9250a761cf87371cf3120"
	},
	"topic": "Product Owner",
	"KSATs": [
		{
			"ksat_id": "K0382",
			"item_proficiency": "B",
			"url": "https://gitlab.com/90cos/product-owner-po-eval-study/basic-po/-/tree/master/knowledge/po-product-backlog_8/README.md"
		},
		{
			"ksat_id": "K0422",
			"item_proficiency": "B",
			"url": "https://gitlab.com/90cos/product-owner-po-eval-study/basic-po/-/tree/master/knowledge/po-product-backlog_8/README.md"
		}
	],
	"complexity": 1,
	"revision_number": 1,
	"disabled": false,
	"provisioned": 0,
	"attempts": 0,
	"passes": 0,
	"failures": 0,
	"test_id": "Basic-Po",
	"test_type": "knowledge",
	"question_id": "BPO_0021",
	"network": "commercial",
	"question_name": "po-product-backlog_8",
	"language": "",
	"question_proficiency": "B",
	"estimated_time_to_complete": 2,
	"created_on": "2020-06-16",
	"updated_on": "2020-01-08 17:51:10",
	"work-roles": [
		"Basic-Po"
	],
	"map_for": "eval"
},
{
	"_id": {
		"$oid": "5ee9250a761cf87371cf3121"
	},
	"topic": "Product Owner",
	"KSATs": [
		{
			"ksat_id": "K0366",
			"item_proficiency": "A",
			"url": "https://gitlab.com/90cos/product-owner-po-eval-study/basic-po/-/tree/master/knowledge/po-requirements_1/README.md"
		},
		{
			"ksat_id": "K0367",
			"item_proficiency": "B",
			"url": "https://gitlab.com/90cos/product-owner-po-eval-study/basic-po/-/tree/master/knowledge/po-requirements_1/README.md"
		},
		{
			"ksat_id": "K0416",
			"item_proficiency": "B",
			"url": "https://gitlab.com/90cos/product-owner-po-eval-study/basic-po/-/tree/master/knowledge/po-requirements_1/README.md"
		}
	],
	"complexity": 1,
	"revision_number": 1,
	"disabled": false,
	"provisioned": 0,
	"attempts": 0,
	"passes": 0,
	"failures": 0,
	"test_id": "Basic-Po",
	"test_type": "knowledge",
	"question_id": "BPO_0032",
	"network": "commercial",
	"question_name": "po-requirements_1",
	"language": "",
	"question_proficiency": "B",
	"estimated_time_to_complete": 2,
	"created_on": "2020-06-16",
	"updated_on": "2019-12-11 20:11:44",
	"work-roles": [
		"Basic-Po"
	],
	"map_for": "eval"
},
{
	"_id": {
		"$oid": "5ee9250a761cf87371cf3122"
	},
	"topic": "Product Owner",
	"KSATs": [
		{
			"ksat_id": "K0366",
			"item_proficiency": "A",
			"url": "https://gitlab.com/90cos/product-owner-po-eval-study/basic-po/-/tree/master/knowledge/po-responsibilities_9/README.md"
		},
		{
			"ksat_id": "K0367",
			"item_proficiency": "B",
			"url": "https://gitlab.com/90cos/product-owner-po-eval-study/basic-po/-/tree/master/knowledge/po-responsibilities_9/README.md"
		}
	],
	"complexity": 1,
	"revision_number": 1,
	"disabled": false,
	"provisioned": 0,
	"attempts": 0,
	"passes": 0,
	"failures": 0,
	"test_id": "Basic-Po",
	"test_type": "knowledge",
	"question_id": "BPO_0041",
	"network": "commercial",
	"question_name": "po-responsibilities_9",
	"language": "",
	"question_proficiency": "B",
	"estimated_time_to_complete": 2,
	"created_on": "2020-06-16",
	"updated_on": "2020-01-08 17:51:10",
	"work-roles": [
		"Basic-Po"
	],
	"map_for": "eval"
},
{
	"_id": {
		"$oid": "5ee9250a761cf87371cf3123"
	},
	"topic": "Product Owner",
	"KSATs": [
		{
			"ksat_id": "K0382",
			"item_proficiency": "B",
			"url": "https://gitlab.com/90cos/product-owner-po-eval-study/basic-po/-/tree/master/knowledge/po-product-backlog_15/README.md"
		}
	],
	"complexity": 1,
	"revision_number": 1,
	"disabled": false,
	"provisioned": 0,
	"attempts": 0,
	"passes": 0,
	"failures": 0,
	"test_id": "Basic-Po",
	"test_type": "knowledge",
	"question_id": "BPO_0028",
	"network": "commercial",
	"question_name": "po-product-backlog_15",
	"language": "",
	"question_proficiency": "B",
	"estimated_time_to_complete": 2,
	"created_on": "2020-06-16",
	"updated_on": "2019-12-11 20:11:44",
	"work-roles": [
		"Basic-Po"
	],
	"map_for": "eval"
},
{
	"_id": {
		"$oid": "5ee9250a761cf87371cf3124"
	},
	"topic": "Product Owner",
	"KSATs": [
		{
			"ksat_id": "K0413",
			"item_proficiency": "B",
			"url": "https://gitlab.com/90cos/product-owner-po-eval-study/basic-po/-/tree/master/knowledge/po-product-backlog_5/README.md"
		}
	],
	"complexity": 1,
	"revision_number": 1,
	"disabled": false,
	"provisioned": 0,
	"attempts": 0,
	"passes": 0,
	"failures": 0,
	"test_id": "Basic-Po",
	"test_type": "knowledge",
	"question_id": "BPO_0018",
	"network": "commercial",
	"question_name": "po-product-backlog_5",
	"language": "",
	"question_proficiency": "B",
	"estimated_time_to_complete": 2,
	"created_on": "2020-06-16",
	"updated_on": "2019-12-10 18:13:19",
	"work-roles": [
		"Basic-Po"
	],
	"map_for": "eval"
},
{
	"_id": {
		"$oid": "5ee9250b761cf87371cf3125"
	},
	"topic": "Product Owner",
	"KSATs": [
		{
			"ksat_id": "K0366",
			"item_proficiency": "A",
			"url": "https://gitlab.com/90cos/product-owner-po-eval-study/basic-po/-/tree/master/knowledge/po-time_1/README.md"
		},
		{
			"ksat_id": "K0367",
			"item_proficiency": "B",
			"url": "https://gitlab.com/90cos/product-owner-po-eval-study/basic-po/-/tree/master/knowledge/po-time_1/README.md"
		}
	],
	"complexity": 1,
	"revision_number": 1,
	"disabled": false,
	"provisioned": 0,
	"attempts": 0,
	"passes": 0,
	"failures": 0,
	"test_id": "Basic-Po",
	"test_type": "knowledge",
	"question_id": "BPO_0070",
	"network": "commercial",
	"question_name": "po-time_1",
	"language": "",
	"question_proficiency": "B",
	"estimated_time_to_complete": 2.25,
	"created_on": "2020-06-16",
	"updated_on": "2020-01-08 17:51:10",
	"work-roles": [
		"Basic-Po"
	],
	"map_for": "eval"
},
{
	"_id": {
		"$oid": "5ee9250b761cf87371cf3126"
	},
	"topic": "Product Owner",
	"KSATs": [
		{
			"ksat_id": "K0366",
			"item_proficiency": "A",
			"url": "https://gitlab.com/90cos/product-owner-po-eval-study/basic-po/-/tree/master/knowledge/po-tech-debt_2/README.md"
		}
	],
	"complexity": 1,
	"revision_number": 1,
	"disabled": false,
	"provisioned": 0,
	"attempts": 0,
	"passes": 0,
	"failures": 0,
	"test_id": "Basic-Po",
	"test_type": "knowledge",
	"question_id": "BPO_0065",
	"network": "commercial",
	"question_name": "po-tech-debt_2",
	"language": "",
	"question_proficiency": "A",
	"estimated_time_to_complete": 2,
	"created_on": "2020-06-16",
	"updated_on": "2020-01-08 17:51:10",
	"work-roles": [
		"Basic-Po"
	],
	"map_for": "eval"
},
{
	"_id": {
		"$oid": "5ee9250b761cf87371cf3127"
	},
	"topic": "Product Owner",
	"KSATs": [
		{
			"ksat_id": "K0392",
			"item_proficiency": "B",
			"url": "https://gitlab.com/90cos/product-owner-po-eval-study/basic-po/-/tree/master/knowledge/po-sprint-scope_1/README.md"
		},
		{
			"ksat_id": "K0400",
			"item_proficiency": "C",
			"url": "https://gitlab.com/90cos/product-owner-po-eval-study/basic-po/-/tree/master/knowledge/po-sprint-scope_1/README.md"
		},
		{
			"ksat_id": "K0402",
			"item_proficiency": "B",
			"url": "https://gitlab.com/90cos/product-owner-po-eval-study/basic-po/-/tree/master/knowledge/po-sprint-scope_1/README.md"
		}
	],
	"complexity": 1,
	"revision_number": 1,
	"disabled": false,
	"provisioned": 0,
	"attempts": 0,
	"passes": 0,
	"failures": 0,
	"test_id": "Basic-Po",
	"test_type": "knowledge",
	"question_id": "BPO_0061",
	"network": "commercial",
	"question_name": "po-sprint-scope_1",
	"language": "",
	"question_proficiency": "C",
	"estimated_time_to_complete": 2,
	"created_on": "2020-06-16",
	"updated_on": "2019-12-10 18:13:19",
	"work-roles": [
		"Basic-Po"
	],
	"map_for": "eval"
},
{
	"_id": {
		"$oid": "5ee9250b761cf87371cf3128"
	},
	"topic": "Product Owner",
	"KSATs": [
		{
			"ksat_id": "K0366",
			"item_proficiency": "A",
			"url": "https://gitlab.com/90cos/product-owner-po-eval-study/basic-po/-/tree/master/knowledge/po-responsibilities_2/README.md"
		},
		{
			"ksat_id": "K0382",
			"item_proficiency": "B",
			"url": "https://gitlab.com/90cos/product-owner-po-eval-study/basic-po/-/tree/master/knowledge/po-responsibilities_2/README.md"
		}
	],
	"complexity": 1,
	"revision_number": 1,
	"disabled": false,
	"provisioned": 0,
	"attempts": 0,
	"passes": 0,
	"failures": 0,
	"test_id": "Basic-Po",
	"test_type": "knowledge",
	"question_id": "BPO_0034",
	"network": "commercial",
	"question_name": "po-responsibilities_2",
	"language": "",
	"question_proficiency": "B",
	"estimated_time_to_complete": 2,
	"created_on": "2020-06-16",
	"updated_on": "2020-01-08 17:51:10",
	"work-roles": [
		"Basic-Po"
	],
	"map_for": "eval"
},
{
	"_id": {
		"$oid": "5ee9250b761cf87371cf3129"
	},
	"topic": "Product Owner",
	"KSATs": [
		{
			"ksat_id": "K0382",
			"item_proficiency": "B",
			"url": "https://gitlab.com/90cos/product-owner-po-eval-study/basic-po/-/tree/master/knowledge/po-product-backlog_10/README.md"
		}
	],
	"complexity": 1,
	"revision_number": 1,
	"disabled": false,
	"provisioned": 0,
	"attempts": 0,
	"passes": 0,
	"failures": 0,
	"test_id": "Basic-Po",
	"test_type": "knowledge",
	"question_id": "BPO_0023",
	"network": "commercial",
	"question_name": "po-product-backlog_10",
	"language": "",
	"question_proficiency": "B",
	"estimated_time_to_complete": 2,
	"created_on": "2020-06-16",
	"updated_on": "2020-01-08 17:51:10",
	"work-roles": [
		"Basic-Po"
	],
	"map_for": "eval"
},
{
	"_id": {
		"$oid": "5ee9250b761cf87371cf312a"
	},
	"topic": "Product Owner",
	"KSATs": [
		{
			"ksat_id": "K0402",
			"item_proficiency": "B",
			"url": "https://gitlab.com/90cos/product-owner-po-eval-study/basic-po/-/tree/master/knowledge/po-increment_1/README.md"
		}
	],
	"complexity": 1,
	"revision_number": 1,
	"disabled": false,
	"provisioned": 0,
	"attempts": 0,
	"passes": 0,
	"failures": 0,
	"test_id": "Basic-Po",
	"test_type": "knowledge",
	"question_id": "BPO_0008",
	"network": "commercial",
	"question_name": "po-increment_1",
	"language": "",
	"question_proficiency": "B",
	"estimated_time_to_complete": 2,
	"created_on": "2020-06-16",
	"updated_on": "2019-12-11 20:11:44",
	"work-roles": [
		"Basic-Po"
	],
	"map_for": "eval"
},
{
	"_id": {
		"$oid": "5ee9250b761cf87371cf312b"
	},
	"topic": "Product Owner",
	"KSATs": [
		{
			"ksat_id": "K0366",
			"item_proficiency": "A",
			"url": "https://gitlab.com/90cos/product-owner-po-eval-study/basic-po/-/tree/master/knowledge/po-responsibilities_7/README.md"
		},
		{
			"ksat_id": "K0367",
			"item_proficiency": "B",
			"url": "https://gitlab.com/90cos/product-owner-po-eval-study/basic-po/-/tree/master/knowledge/po-responsibilities_7/README.md"
		}
	],
	"complexity": 1,
	"revision_number": 1,
	"disabled": false,
	"provisioned": 0,
	"attempts": 0,
	"passes": 0,
	"failures": 0,
	"test_id": "Basic-Po",
	"test_type": "knowledge",
	"question_id": "BPO_0039",
	"network": "commercial",
	"question_name": "po-responsibilities_7",
	"language": "",
	"question_proficiency": "B",
	"estimated_time_to_complete": 2,
	"created_on": "2020-06-16",
	"updated_on": "2019-12-10 18:13:19",
	"work-roles": [
		"Basic-Po"
	],
	"map_for": "eval"
},
{
	"_id": {
		"$oid": "5ee9250b761cf87371cf312c"
	},
	"topic": "Product Owner",
	"KSATs": [
		{
			"ksat_id": "K0382",
			"item_proficiency": "B",
			"url": "https://gitlab.com/90cos/product-owner-po-eval-study/basic-po/-/tree/master/knowledge/po-tech-debt_1/README.md"
		}
	],
	"complexity": 1,
	"revision_number": 1,
	"disabled": false,
	"provisioned": 0,
	"attempts": 0,
	"passes": 0,
	"failures": 0,
	"test_id": "Basic-Po",
	"test_type": "knowledge",
	"question_id": "BPO_0064",
	"network": "commercial",
	"question_name": "po-tech-debt_1",
	"language": "",
	"question_proficiency": "B",
	"estimated_time_to_complete": 2,
	"created_on": "2020-06-16",
	"updated_on": "2020-01-08 17:51:10",
	"work-roles": [
		"Basic-Po"
	],
	"map_for": "eval"
},
{
	"_id": {
		"$oid": "5ee9250b761cf87371cf312d"
	},
	"topic": "Product Owner",
	"KSATs": [
		{
			"ksat_id": "K0382",
			"item_proficiency": "B",
			"url": "https://gitlab.com/90cos/product-owner-po-eval-study/basic-po/-/tree/master/knowledge/po-product-backlog_16/README.md"
		},
		{
			"ksat_id": "K0422",
			"item_proficiency": "B",
			"url": "https://gitlab.com/90cos/product-owner-po-eval-study/basic-po/-/tree/master/knowledge/po-product-backlog_16/README.md"
		}
	],
	"complexity": 1,
	"revision_number": 1,
	"disabled": false,
	"provisioned": 0,
	"attempts": 0,
	"passes": 0,
	"failures": 0,
	"test_id": "Basic-Po",
	"test_type": "knowledge",
	"question_id": "BPO_0029",
	"network": "commercial",
	"question_name": "po-product-backlog_16",
	"language": "",
	"question_proficiency": "B",
	"estimated_time_to_complete": 2,
	"created_on": "2020-06-16",
	"updated_on": "2020-01-08 17:51:10",
	"work-roles": [
		"Basic-Po"
	],
	"map_for": "eval"
},
{
	"_id": {
		"$oid": "5ee9250b761cf87371cf312e"
	},
	"topic": "Product Owner",
	"KSATs": [
		{
			"ksat_id": "K0382",
			"item_proficiency": "B",
			"url": "https://gitlab.com/90cos/product-owner-po-eval-study/basic-po/-/tree/master/knowledge/po-product-backlog_4/README.md"
		},
		{
			"ksat_id": "K0422",
			"item_proficiency": "B",
			"url": "https://gitlab.com/90cos/product-owner-po-eval-study/basic-po/-/tree/master/knowledge/po-product-backlog_4/README.md"
		}
	],
	"complexity": 1,
	"revision_number": 1,
	"disabled": false,
	"provisioned": 0,
	"attempts": 0,
	"passes": 0,
	"failures": 0,
	"test_id": "Basic-Po",
	"test_type": "knowledge",
	"question_id": "BPO_0017",
	"network": "commercial",
	"question_name": "po-product-backlog_4",
	"language": "",
	"question_proficiency": "B",
	"estimated_time_to_complete": 2,
	"created_on": "2020-06-16",
	"updated_on": "2020-01-08 17:51:10",
	"work-roles": [
		"Basic-Po"
	],
	"map_for": "eval"
},
{
	"_id": {
		"$oid": "5ee9250b761cf87371cf312f"
	},
	"topic": "Product Owner",
	"KSATs": [
		{
			"ksat_id": "K0382",
			"item_proficiency": "B",
			"url": "https://gitlab.com/90cos/product-owner-po-eval-study/basic-po/-/tree/master/knowledge/po-product-backlog_1/README.md"
		},
		{
			"ksat_id": "K0413",
			"item_proficiency": "B",
			"url": "https://gitlab.com/90cos/product-owner-po-eval-study/basic-po/-/tree/master/knowledge/po-product-backlog_1/README.md"
		},
		{
			"ksat_id": "K0422",
			"item_proficiency": "B",
			"url": "https://gitlab.com/90cos/product-owner-po-eval-study/basic-po/-/tree/master/knowledge/po-product-backlog_1/README.md"
		}
	],
	"complexity": 1,
	"revision_number": 1,
	"disabled": false,
	"provisioned": 0,
	"attempts": 0,
	"passes": 0,
	"failures": 0,
	"test_id": "Basic-Po",
	"test_type": "knowledge",
	"question_id": "BPO_0014",
	"network": "commercial",
	"question_name": "po-product-backlog_1",
	"language": "",
	"question_proficiency": "B",
	"estimated_time_to_complete": 2,
	"created_on": "2020-06-16",
	"updated_on": "2020-01-08 17:51:10",
	"work-roles": [
		"Basic-Po"
	],
	"map_for": "eval"
},
{
	"_id": {
		"$oid": "5ee9250b761cf87371cf3130"
	},
	"topic": "Product Owner",
	"KSATs": [
		{
			"ksat_id": "K0400",
			"item_proficiency": "C",
			"url": "https://gitlab.com/90cos/product-owner-po-eval-study/basic-po/-/tree/master/knowledge/po-functional-reqs/README.md"
		},
		{
			"ksat_id": "K0402",
			"item_proficiency": "B",
			"url": "https://gitlab.com/90cos/product-owner-po-eval-study/basic-po/-/tree/master/knowledge/po-functional-reqs/README.md"
		},
		{
			"ksat_id": "K0406",
			"item_proficiency": "B",
			"url": "https://gitlab.com/90cos/product-owner-po-eval-study/basic-po/-/tree/master/knowledge/po-functional-reqs/README.md"
		}
	],
	"complexity": 1,
	"revision_number": 1,
	"disabled": false,
	"provisioned": 0,
	"attempts": 0,
	"passes": 0,
	"failures": 0,
	"test_id": "Basic-Po",
	"test_type": "knowledge",
	"question_id": "BPO_0007",
	"network": "commercial",
	"question_name": "po-functional-reqs",
	"language": "",
	"question_proficiency": "C",
	"estimated_time_to_complete": 2,
	"created_on": "2020-06-16",
	"updated_on": "2019-12-10 18:13:19",
	"work-roles": [
		"Basic-Po"
	],
	"map_for": "eval"
},
{
	"_id": {
		"$oid": "5ee9250b761cf87371cf3131"
	},
	"topic": "Product Owner",
	"KSATs": [
		{
			"ksat_id": "K0382",
			"item_proficiency": "B",
			"url": "https://gitlab.com/90cos/product-owner-po-eval-study/basic-po/-/tree/master/knowledge/po-product-backlog_18/README.md"
		}
	],
	"complexity": 1,
	"revision_number": 1,
	"disabled": false,
	"provisioned": 0,
	"attempts": 0,
	"passes": 0,
	"failures": 0,
	"test_id": "Basic-Po",
	"test_type": "knowledge",
	"question_id": "BPO_0031",
	"network": "commercial",
	"question_name": "po-product-backlog_18",
	"language": "",
	"question_proficiency": "B",
	"estimated_time_to_complete": 2.25,
	"created_on": "2020-06-16",
	"updated_on": "2020-01-08 17:51:10",
	"work-roles": [
		"Basic-Po"
	],
	"map_for": "eval"
},
{
	"_id": {
		"$oid": "5ee9250b761cf87371cf3132"
	},
	"topic": "Product Owner",
	"KSATs": [
		{
			"ksat_id": "K0371",
			"item_proficiency": "B",
			"url": "https://gitlab.com/90cos/product-owner-po-eval-study/basic-po/-/tree/master/knowledge/po-performance-reqs/README.md"
		},
		{
			"ksat_id": "K0420",
			"item_proficiency": "A",
			"url": "https://gitlab.com/90cos/product-owner-po-eval-study/basic-po/-/tree/master/knowledge/po-performance-reqs/README.md"
		},
		{
			"ksat_id": "K0421",
			"item_proficiency": "B",
			"url": "https://gitlab.com/90cos/product-owner-po-eval-study/basic-po/-/tree/master/knowledge/po-performance-reqs/README.md"
		}
	],
	"complexity": 1,
	"revision_number": 1,
	"disabled": false,
	"provisioned": 0,
	"attempts": 0,
	"passes": 0,
	"failures": 0,
	"test_id": "Basic-Po",
	"test_type": "knowledge",
	"question_id": "BPO_0010",
	"network": "commercial",
	"question_name": "po-performance-reqs",
	"language": "",
	"question_proficiency": "B",
	"estimated_time_to_complete": 2,
	"created_on": "2020-06-16",
	"updated_on": "2020-01-08 17:51:10",
	"work-roles": [
		"Basic-Po"
	],
	"map_for": "eval"
},
{
	"_id": {
		"$oid": "5ee9250b761cf87371cf3133"
	},
	"topic": "Product Owner",
	"KSATs": [
		{
			"ksat_id": "K0382",
			"item_proficiency": "B",
			"url": "https://gitlab.com/90cos/product-owner-po-eval-study/basic-po/-/tree/master/knowledge/po-product-backlog_3/README.md"
		},
		{
			"ksat_id": "K0419",
			"item_proficiency": "B",
			"url": "https://gitlab.com/90cos/product-owner-po-eval-study/basic-po/-/tree/master/knowledge/po-product-backlog_3/README.md"
		}
	],
	"complexity": 1,
	"revision_number": 1,
	"disabled": false,
	"provisioned": 0,
	"attempts": 0,
	"passes": 0,
	"failures": 0,
	"test_id": "Basic-Po",
	"test_type": "knowledge",
	"question_id": "BPO_0016",
	"network": "commercial",
	"question_name": "po-product-backlog_3",
	"language": "",
	"question_proficiency": "B",
	"estimated_time_to_complete": 2,
	"created_on": "2020-06-16",
	"updated_on": "2020-01-08 17:51:10",
	"work-roles": [
		"Basic-Po"
	],
	"map_for": "eval"
},
{
	"_id": {
		"$oid": "5ee9250b761cf87371cf3134"
	},
	"topic": "Product Owner",
	"KSATs": [
		{
			"ksat_id": "K0367",
			"item_proficiency": "B",
			"url": "https://gitlab.com/90cos/product-owner-po-eval-study/basic-po/-/tree/master/knowledge/po-sprint-backlog_2/README.md"
		},
		{
			"ksat_id": "K0649",
			"item_proficiency": "C",
			"url": "https://gitlab.com/90cos/product-owner-po-eval-study/basic-po/-/tree/master/knowledge/po-sprint-backlog_2/README.md"
		}
	],
	"complexity": 1,
	"revision_number": 1,
	"disabled": false,
	"provisioned": 0,
	"attempts": 0,
	"passes": 0,
	"failures": 0,
	"test_id": "Basic-Po",
	"test_type": "knowledge",
	"question_id": "BPO_0055",
	"network": "commercial",
	"question_name": "po-sprint-backlog_2",
	"language": "",
	"question_proficiency": "C",
	"estimated_time_to_complete": 2,
	"created_on": "2020-06-16",
	"updated_on": "2019-12-11 20:11:44",
	"work-roles": [
		"Basic-Po"
	],
	"map_for": "eval"
},
{
	"_id": {
		"$oid": "5ee9250b761cf87371cf3135"
	},
	"topic": "Product Owner",
	"KSATs": [
		{
			"ksat_id": "K0366",
			"item_proficiency": "A",
			"url": "https://gitlab.com/90cos/product-owner-po-eval-study/basic-po/-/tree/master/knowledge/po-performance_1/README.md"
		},
		{
			"ksat_id": "K0412",
			"item_proficiency": "B",
			"url": "https://gitlab.com/90cos/product-owner-po-eval-study/basic-po/-/tree/master/knowledge/po-performance_1/README.md"
		}
	],
	"complexity": 1,
	"revision_number": 1,
	"disabled": false,
	"provisioned": 0,
	"attempts": 0,
	"passes": 0,
	"failures": 0,
	"test_id": "Basic-Po",
	"test_type": "knowledge",
	"question_id": "BPO_0011",
	"network": "commercial",
	"question_name": "po-performance_1",
	"language": "",
	"question_proficiency": "B",
	"estimated_time_to_complete": 2,
	"created_on": "2020-06-16",
	"updated_on": "2020-01-08 17:51:10",
	"work-roles": [
		"Basic-Po"
	],
	"map_for": "eval"
},
{
	"_id": {
		"$oid": "5ee9250b761cf87371cf3136"
	},
	"topic": "Product Owner",
	"KSATs": [
		{
			"ksat_id": "K0415",
			"item_proficiency": "A",
			"url": "https://gitlab.com/90cos/product-owner-po-eval-study/basic-po/-/tree/master/knowledge/po-velocity-vs-value_1/README.md"
		},
		{
			"ksat_id": "K0663",
			"item_proficiency": "B",
			"url": "https://gitlab.com/90cos/product-owner-po-eval-study/basic-po/-/tree/master/knowledge/po-velocity-vs-value_1/README.md"
		}
	],
	"complexity": 1,
	"revision_number": 1,
	"disabled": false,
	"provisioned": 0,
	"attempts": 0,
	"passes": 0,
	"failures": 0,
	"test_id": "Basic-Po",
	"test_type": "knowledge",
	"question_id": "BPO_0072",
	"network": "commercial",
	"question_name": "po-velocity-vs-value_1",
	"language": "",
	"question_proficiency": "B",
	"estimated_time_to_complete": 2,
	"created_on": "2020-06-16",
	"updated_on": "2019-12-10 18:13:19",
	"work-roles": [
		"Basic-Po"
	],
	"map_for": "eval"
},
{
	"_id": {
		"$oid": "5ee9250b761cf87371cf3137"
	},
	"topic": "Product Owner",
	"KSATs": [
		{
			"ksat_id": "K0382",
			"item_proficiency": "B",
			"url": "https://gitlab.com/90cos/product-owner-po-eval-study/basic-po/-/tree/master/knowledge/po-product-backlog_7/README.md"
		},
		{
			"ksat_id": "K0422",
			"item_proficiency": "B",
			"url": "https://gitlab.com/90cos/product-owner-po-eval-study/basic-po/-/tree/master/knowledge/po-product-backlog_7/README.md"
		}
	],
	"complexity": 1,
	"revision_number": 1,
	"disabled": false,
	"provisioned": 0,
	"attempts": 0,
	"passes": 0,
	"failures": 0,
	"test_id": "Basic-Po",
	"test_type": "knowledge",
	"question_id": "BPO_0020",
	"network": "commercial",
	"question_name": "po-product-backlog_7",
	"language": "",
	"question_proficiency": "B",
	"estimated_time_to_complete": 2,
	"created_on": "2020-06-16",
	"updated_on": "2019-12-10 18:13:19",
	"work-roles": [
		"Basic-Po"
	],
	"map_for": "eval"
},
{
	"_id": {
		"$oid": "5ee9250b761cf87371cf3138"
	},
	"topic": "Product Owner",
	"KSATs": [
		{
			"ksat_id": "K0367",
			"item_proficiency": "B",
			"url": "https://gitlab.com/90cos/product-owner-po-eval-study/basic-po/-/tree/master/knowledge/po-testers_1/README.md"
		},
		{
			"ksat_id": "K0652",
			"item_proficiency": "B",
			"url": "https://gitlab.com/90cos/product-owner-po-eval-study/basic-po/-/tree/master/knowledge/po-testers_1/README.md"
		}
	],
	"complexity": 1,
	"revision_number": 1,
	"disabled": false,
	"provisioned": 0,
	"attempts": 0,
	"passes": 0,
	"failures": 0,
	"test_id": "Basic-Po",
	"test_type": "knowledge",
	"question_id": "BPO_0067",
	"network": "commercial",
	"question_name": "po-testers_1",
	"language": "",
	"question_proficiency": "B",
	"estimated_time_to_complete": 2,
	"created_on": "2020-06-16",
	"updated_on": "2020-01-08 17:51:10",
	"work-roles": [
		"Basic-Po"
	],
	"map_for": "eval"
},
{
	"_id": {
		"$oid": "5ee9250b761cf87371cf3139"
	},
	"topic": "Product Owner",
	"KSATs": [
		{
			"ksat_id": "K0382",
			"item_proficiency": "B",
			"url": "https://gitlab.com/90cos/product-owner-po-eval-study/basic-po/-/tree/master/knowledge/po-product-backlog_17/README.md"
		}
	],
	"complexity": 1,
	"revision_number": 1,
	"disabled": false,
	"provisioned": 0,
	"attempts": 0,
	"passes": 0,
	"failures": 0,
	"test_id": "Basic-Po",
	"test_type": "knowledge",
	"question_id": "BPO_0030",
	"network": "commercial",
	"question_name": "po-product-backlog_17",
	"language": "",
	"question_proficiency": "B",
	"estimated_time_to_complete": 2.25,
	"created_on": "2020-06-16",
	"updated_on": "2020-01-08 17:51:10",
	"work-roles": [
		"Basic-Po"
	],
	"map_for": "eval"
},
{
	"_id": {
		"$oid": "5ee9250b761cf87371cf313a"
	},
	"topic": "Product Owner",
	"KSATs": [
		{
			"ksat_id": "K0371",
			"item_proficiency": "B",
			"url": "https://gitlab.com/90cos/product-owner-po-eval-study/basic-po/-/tree/master/knowledge/po-responsibilities_8/README.md"
		},
		{
			"ksat_id": "K0401",
			"item_proficiency": "B",
			"url": "https://gitlab.com/90cos/product-owner-po-eval-study/basic-po/-/tree/master/knowledge/po-responsibilities_8/README.md"
		},
		{
			"ksat_id": "K0403",
			"item_proficiency": "A",
			"url": "https://gitlab.com/90cos/product-owner-po-eval-study/basic-po/-/tree/master/knowledge/po-responsibilities_8/README.md"
		},
		{
			"ksat_id": "K0404",
			"item_proficiency": "B",
			"url": "https://gitlab.com/90cos/product-owner-po-eval-study/basic-po/-/tree/master/knowledge/po-responsibilities_8/README.md"
		}
	],
	"complexity": 1,
	"revision_number": 1,
	"disabled": false,
	"provisioned": 0,
	"attempts": 0,
	"passes": 0,
	"failures": 0,
	"test_id": "Basic-Po",
	"test_type": "knowledge",
	"question_id": "BPO_0040",
	"network": "commercial",
	"question_name": "po-responsibilities_8",
	"language": "",
	"question_proficiency": "B",
	"estimated_time_to_complete": 2,
	"created_on": "2020-06-16",
	"updated_on": "2019-12-10 18:13:19",
	"work-roles": [
		"Basic-Po"
	],
	"map_for": "eval"
},
{
	"_id": {
		"$oid": "5ee9250b761cf87371cf313b"
	},
	"topic": "Product Owner",
	"KSATs": [
		{
			"ksat_id": "K0651",
			"item_proficiency": "B",
			"url": "https://gitlab.com/90cos/product-owner-po-eval-study/basic-po/-/tree/master/knowledge/po-burn-down-chart_1/README.md"
		}
	],
	"complexity": 1,
	"revision_number": 1,
	"disabled": false,
	"provisioned": 0,
	"attempts": 0,
	"passes": 0,
	"failures": 0,
	"test_id": "Basic-Po",
	"test_type": "knowledge",
	"question_id": "BPO_0004",
	"network": "commercial",
	"question_name": "po-burn-down-chart_1",
	"language": "",
	"question_proficiency": "B",
	"estimated_time_to_complete": 2,
	"created_on": "2020-06-16",
	"updated_on": "2019-12-11 20:11:44",
	"work-roles": [
		"Basic-Po"
	],
	"map_for": "eval"
},
{
	"_id": {
		"$oid": "5ee9250b761cf87371cf313c"
	},
	"topic": "Product Owner",
	"KSATs": [
		{
			"ksat_id": "K0382",
			"item_proficiency": "B",
			"url": "https://gitlab.com/90cos/product-owner-po-eval-study/basic-po/-/tree/master/knowledge/po-product-backlog_11/README.md"
		}
	],
	"complexity": 1,
	"revision_number": 1,
	"disabled": false,
	"provisioned": 0,
	"attempts": 0,
	"passes": 0,
	"failures": 0,
	"test_id": "Basic-Po",
	"test_type": "knowledge",
	"question_id": "BPO_0024",
	"network": "commercial",
	"question_name": "po-product-backlog_11",
	"language": "",
	"question_proficiency": "B",
	"estimated_time_to_complete": 2,
	"created_on": "2020-06-16",
	"updated_on": "2020-01-08 17:51:10",
	"work-roles": [
		"Basic-Po"
	],
	"map_for": "eval"
},
{
	"_id": {
		"$oid": "5ee9250b761cf87371cf313d"
	},
	"topic": "Product Owner",
	"KSATs": [
		{
			"ksat_id": "K0649",
			"item_proficiency": "C",
			"url": "https://gitlab.com/90cos/product-owner-po-eval-study/basic-po/-/tree/master/knowledge/po-responsibilities_11/README.md"
		}
	],
	"complexity": 1,
	"revision_number": 1,
	"disabled": false,
	"provisioned": 0,
	"attempts": 0,
	"passes": 0,
	"failures": 0,
	"test_id": "Basic-Po",
	"test_type": "knowledge",
	"question_id": "BPO_0043",
	"network": "commercial",
	"question_name": "po-responsibilities_11",
	"language": "",
	"question_proficiency": "C",
	"estimated_time_to_complete": 2,
	"created_on": "2020-06-16",
	"updated_on": "2020-01-08 17:51:10",
	"work-roles": [
		"Basic-Po"
	],
	"map_for": "eval"
},
{
	"_id": {
		"$oid": "5ee9250b761cf87371cf313e"
	},
	"topic": "Product Owner",
	"KSATs": [
		{
			"ksat_id": "K0366",
			"item_proficiency": "A",
			"url": "https://gitlab.com/90cos/product-owner-po-eval-study/basic-po/-/tree/master/knowledge/po-responsibilities_1/README.md"
		},
		{
			"ksat_id": "K0367",
			"item_proficiency": "B",
			"url": "https://gitlab.com/90cos/product-owner-po-eval-study/basic-po/-/tree/master/knowledge/po-responsibilities_1/README.md"
		},
		{
			"ksat_id": "K0669",
			"item_proficiency": "B",
			"url": "https://gitlab.com/90cos/product-owner-po-eval-study/basic-po/-/tree/master/knowledge/po-responsibilities_1/README.md"
		}
	],
	"complexity": 1,
	"revision_number": 1,
	"disabled": false,
	"provisioned": 0,
	"attempts": 0,
	"passes": 0,
	"failures": 0,
	"test_id": "Basic-Po",
	"test_type": "knowledge",
	"question_id": "BPO_0033",
	"network": "commercial",
	"question_name": "po-responsibilities_1",
	"language": "",
	"question_proficiency": "B",
	"estimated_time_to_complete": 2,
	"created_on": "2020-06-16",
	"updated_on": "2020-01-08 17:51:10",
	"work-roles": [
		"Basic-Po"
	],
	"map_for": "eval"
},
{
	"_id": {
		"$oid": "5ee9250b761cf87371cf313f"
	},
	"topic": "Product Owner",
	"KSATs": [
		{
			"ksat_id": "K0367",
			"item_proficiency": "B",
			"url": "https://gitlab.com/90cos/product-owner-po-eval-study/basic-po/-/tree/master/knowledge/po-responsibilities_13/README.md"
		},
		{
			"ksat_id": "K0669",
			"item_proficiency": "B",
			"url": "https://gitlab.com/90cos/product-owner-po-eval-study/basic-po/-/tree/master/knowledge/po-responsibilities_13/README.md"
		}
	],
	"complexity": 1,
	"revision_number": 1,
	"disabled": false,
	"provisioned": 0,
	"attempts": 0,
	"passes": 0,
	"failures": 0,
	"test_id": "Basic-Po",
	"test_type": "knowledge",
	"question_id": "BPO_0044",
	"network": "commercial",
	"question_name": "po-responsibilities_13",
	"language": "",
	"question_proficiency": "C",
	"estimated_time_to_complete": 2,
	"created_on": "2020-06-16",
	"updated_on": "2020-01-08 17:51:10",
	"work-roles": [
		"Basic-Po"
	],
	"map_for": "eval"
},
{
	"_id": {
		"$oid": "5ee9250b761cf87371cf3140"
	},
	"topic": "Product Owner",
	"KSATs": [
		{
			"ksat_id": "K0366",
			"item_proficiency": "A",
			"url": "https://gitlab.com/90cos/product-owner-po-eval-study/basic-po/-/tree/master/knowledge/po-sprint-retrospective_1/README.md"
		}
	],
	"complexity": 1,
	"revision_number": 1,
	"disabled": false,
	"provisioned": 0,
	"attempts": 0,
	"passes": 0,
	"failures": 0,
	"test_id": "Basic-Po",
	"test_type": "knowledge",
	"question_id": "BPO_0060",
	"network": "commercial",
	"question_name": "po-sprint-retrospective_1",
	"language": "",
	"question_proficiency": "A",
	"estimated_time_to_complete": 2,
	"created_on": "2020-06-16",
	"updated_on": "2019-12-11 20:11:44",
	"work-roles": [
		"Basic-Po"
	],
	"map_for": "eval"
},
{
	"_id": {
		"$oid": "5ee9250b761cf87371cf3141"
	},
	"topic": "Product Owner",
	"KSATs": [
		{
			"ksat_id": "K0367",
			"item_proficiency": "B",
			"url": "https://gitlab.com/90cos/product-owner-po-eval-study/basic-po/-/tree/master/knowledge/po-scrum_2/README.md"
		},
		{
			"ksat_id": "K0649",
			"item_proficiency": "C",
			"url": "https://gitlab.com/90cos/product-owner-po-eval-study/basic-po/-/tree/master/knowledge/po-scrum_2/README.md"
		}
	],
	"complexity": 1,
	"revision_number": 1,
	"disabled": false,
	"provisioned": 0,
	"attempts": 0,
	"passes": 0,
	"failures": 0,
	"test_id": "Basic-Po",
	"test_type": "knowledge",
	"question_id": "BPO_0052",
	"network": "commercial",
	"question_name": "po-scrum_2",
	"language": "",
	"question_proficiency": "C",
	"estimated_time_to_complete": 2,
	"created_on": "2020-06-16",
	"updated_on": "2020-01-08 17:51:10",
	"work-roles": [
		"Basic-Po"
	],
	"map_for": "eval"
},
{
	"_id": {
		"$oid": "5ee9250b761cf87371cf3142"
	},
	"topic": "Product Owner",
	"KSATs": [
		{
			"ksat_id": "K0396",
			"item_proficiency": "B",
			"url": "https://gitlab.com/90cos/product-owner-po-eval-study/basic-po/-/tree/master/knowledge/po-responsibilities_4/README.md"
		}
	],
	"complexity": 1,
	"revision_number": 1,
	"disabled": false,
	"provisioned": 0,
	"attempts": 0,
	"passes": 0,
	"failures": 0,
	"test_id": "Basic-Po",
	"test_type": "knowledge",
	"question_id": "BPO_0036",
	"network": "commercial",
	"question_name": "po-responsibilities_4",
	"language": "",
	"question_proficiency": "B",
	"estimated_time_to_complete": 2,
	"created_on": "2020-06-16",
	"updated_on": "2019-12-10 18:13:19",
	"work-roles": [
		"Basic-Po"
	],
	"map_for": "eval"
},
{
	"_id": {
		"$oid": "5ee9250b761cf87371cf3143"
	},
	"topic": "Product Owner",
	"KSATs": [
		{
			"ksat_id": "K0367",
			"item_proficiency": "B",
			"url": "https://gitlab.com/90cos/product-owner-po-eval-study/basic-po/-/tree/master/knowledge/po-dev-team_1/README.md"
		}
	],
	"complexity": 1,
	"revision_number": 1,
	"disabled": false,
	"provisioned": 0,
	"attempts": 0,
	"passes": 0,
	"failures": 0,
	"test_id": "Basic-Po",
	"test_type": "knowledge",
	"question_id": "BPO_0005",
	"network": "commercial",
	"question_name": "po-dev-team_1",
	"language": "",
	"question_proficiency": "B",
	"estimated_time_to_complete": 2,
	"created_on": "2020-06-16",
	"updated_on": "2019-12-11 20:11:44",
	"work-roles": [
		"Basic-Po"
	],
	"map_for": "eval"
},
{
	"_id": {
		"$oid": "5ee9250b761cf87371cf3144"
	},
	"topic": "Product Owner",
	"KSATs": [
		{
			"ksat_id": "K0382",
			"item_proficiency": "B",
			"url": "https://gitlab.com/90cos/product-owner-po-eval-study/basic-po/-/tree/master/knowledge/po-responsibilities_6/README.md"
		}
	],
	"complexity": 1,
	"revision_number": 1,
	"disabled": false,
	"provisioned": 0,
	"attempts": 0,
	"passes": 0,
	"failures": 0,
	"test_id": "Basic-Po",
	"test_type": "knowledge",
	"question_id": "BPO_0038",
	"network": "commercial",
	"question_name": "po-responsibilities_6",
	"language": "",
	"question_proficiency": "B",
	"estimated_time_to_complete": 2,
	"created_on": "2020-06-16",
	"updated_on": "2020-01-08 17:51:10",
	"work-roles": [
		"Basic-Po"
	],
	"map_for": "eval"
},
{
	"_id": {
		"$oid": "5ee9250b761cf87371cf3145"
	},
	"topic": "Product Owner",
	"KSATs": [
		{
			"ksat_id": "K0668",
			"item_proficiency": "B",
			"url": "https://gitlab.com/90cos/product-owner-po-eval-study/basic-po/-/tree/master/knowledge/po-scrum_1/README.md"
		}
	],
	"complexity": 1,
	"revision_number": 1,
	"disabled": false,
	"provisioned": 0,
	"attempts": 0,
	"passes": 0,
	"failures": 0,
	"test_id": "Basic-Po",
	"test_type": "knowledge",
	"question_id": "BPO_0051",
	"network": "commercial",
	"question_name": "po-scrum_1",
	"language": "",
	"question_proficiency": "B",
	"estimated_time_to_complete": 2,
	"created_on": "2020-06-16",
	"updated_on": "2019-12-10 18:13:19",
	"work-roles": [
		"Basic-Po"
	],
	"map_for": "eval"
},
{
	"_id": {
		"$oid": "5ee9250b761cf87371cf3146"
	},
	"topic": "Product Owner",
	"KSATs": [
		{
			"ksat_id": "K0366",
			"item_proficiency": "A",
			"url": "https://gitlab.com/90cos/product-owner-po-eval-study/basic-po/-/tree/master/knowledge/po-po-role_2/README.md"
		},
		{
			"ksat_id": "K0367",
			"item_proficiency": "B",
			"url": "https://gitlab.com/90cos/product-owner-po-eval-study/basic-po/-/tree/master/knowledge/po-po-role_2/README.md"
		}
	],
	"complexity": 1,
	"revision_number": 1,
	"disabled": false,
	"provisioned": 0,
	"attempts": 0,
	"passes": 0,
	"failures": 0,
	"test_id": "Basic-Po",
	"test_type": "knowledge",
	"question_id": "BPO_0013",
	"network": "commercial",
	"question_name": "po-po-role_2",
	"language": "",
	"question_proficiency": "B",
	"estimated_time_to_complete": 2.25,
	"created_on": "2020-06-16",
	"updated_on": "2020-01-08 17:51:10",
	"work-roles": [
		"Basic-Po"
	],
	"map_for": "eval"
},
{
	"_id": {
		"$oid": "5ee9250b761cf87371cf3147"
	},
	"topic": "Product Owner",
	"KSATs": [
		{
			"ksat_id": "K0413",
			"item_proficiency": "B",
			"url": "https://gitlab.com/90cos/product-owner-po-eval-study/basic-po/-/tree/master/knowledge/po-product-backlog_6/README.md"
		},
		{
			"ksat_id": "K0419",
			"item_proficiency": "B",
			"url": "https://gitlab.com/90cos/product-owner-po-eval-study/basic-po/-/tree/master/knowledge/po-product-backlog_6/README.md"
		},
		{
			"ksat_id": "K0420",
			"item_proficiency": "A",
			"url": "https://gitlab.com/90cos/product-owner-po-eval-study/basic-po/-/tree/master/knowledge/po-product-backlog_6/README.md"
		}
	],
	"complexity": 1,
	"revision_number": 1,
	"disabled": false,
	"provisioned": 0,
	"attempts": 0,
	"passes": 0,
	"failures": 0,
	"test_id": "Basic-Po",
	"test_type": "knowledge",
	"question_id": "BPO_0019",
	"network": "commercial",
	"question_name": "po-product-backlog_6",
	"language": "",
	"question_proficiency": "B",
	"estimated_time_to_complete": 2,
	"created_on": "2020-06-16",
	"updated_on": "2020-01-08 17:51:10",
	"work-roles": [
		"Basic-Po"
	],
	"map_for": "eval"
},
{
	"_id": {
		"$oid": "5ee9250b761cf87371cf3148"
	},
	"topic": "Product Owner",
	"KSATs": [
		{
			"ksat_id": "K0366",
			"item_proficiency": "A",
			"url": "https://gitlab.com/90cos/product-owner-po-eval-study/basic-po/-/tree/master/knowledge/po-time-management_1/README.md"
		},
		{
			"ksat_id": "K0367",
			"item_proficiency": "B",
			"url": "https://gitlab.com/90cos/product-owner-po-eval-study/basic-po/-/tree/master/knowledge/po-time-management_1/README.md"
		}
	],
	"complexity": 1,
	"revision_number": 1,
	"disabled": false,
	"provisioned": 0,
	"attempts": 0,
	"passes": 0,
	"failures": 0,
	"test_id": "Basic-Po",
	"test_type": "knowledge",
	"question_id": "BPO_0068",
	"network": "commercial",
	"question_name": "po-time-management_1",
	"language": "",
	"question_proficiency": "B",
	"estimated_time_to_complete": 2,
	"created_on": "2020-06-16",
	"updated_on": "2020-01-08 17:51:10",
	"work-roles": [
		"Basic-Po"
	],
	"map_for": "eval"
},
{
	"_id": {
		"$oid": "5ee9250b761cf87371cf3149"
	},
	"topic": "Product Owner",
	"KSATs": [
		{
			"ksat_id": "K0415",
			"item_proficiency": "A",
			"url": "https://gitlab.com/90cos/product-owner-po-eval-study/basic-po/-/tree/master/knowledge/po-value_1/README.md"
		},
		{
			"ksat_id": "K0416",
			"item_proficiency": "B",
			"url": "https://gitlab.com/90cos/product-owner-po-eval-study/basic-po/-/tree/master/knowledge/po-value_1/README.md"
		}
	],
	"complexity": 1,
	"revision_number": 1,
	"disabled": false,
	"provisioned": 0,
	"attempts": 0,
	"passes": 0,
	"failures": 0,
	"test_id": "Basic-Po",
	"test_type": "knowledge",
	"question_id": "BPO_0071",
	"network": "commercial",
	"question_name": "po-value_1",
	"language": "",
	"question_proficiency": "B",
	"estimated_time_to_complete": 2.25,
	"created_on": "2020-06-16",
	"updated_on": "2019-12-12 15:52:03",
	"work-roles": [
		"Basic-Po"
	],
	"map_for": "eval"
},
{
	"_id": {
		"$oid": "5ee9250b761cf87371cf314a"
	},
	"topic": "Product Owner",
	"KSATs": [
		{
			"ksat_id": "K0367",
			"item_proficiency": "B",
			"url": "https://gitlab.com/90cos/product-owner-po-eval-study/basic-po/-/tree/master/knowledge/po-sprint-backlog_4/README.md"
		},
		{
			"ksat_id": "K0649",
			"item_proficiency": "C",
			"url": "https://gitlab.com/90cos/product-owner-po-eval-study/basic-po/-/tree/master/knowledge/po-sprint-backlog_4/README.md"
		}
	],
	"complexity": 1,
	"revision_number": 1,
	"disabled": false,
	"provisioned": 0,
	"attempts": 0,
	"passes": 0,
	"failures": 0,
	"test_id": "Basic-Po",
	"test_type": "knowledge",
	"question_id": "BPO_0056",
	"network": "commercial",
	"question_name": "po-sprint-backlog_4",
	"language": "",
	"question_proficiency": "C",
	"estimated_time_to_complete": 2,
	"created_on": "2020-06-16",
	"updated_on": "2020-01-08 17:51:10",
	"work-roles": [
		"Basic-Po"
	],
	"map_for": "eval"
},
{
	"_id": {
		"$oid": "5ee9250b761cf87371cf314b"
	},
	"topic": "Product Owner",
	"KSATs": [
		{
			"ksat_id": "K0382",
			"item_proficiency": "B",
			"url": "https://gitlab.com/90cos/product-owner-po-eval-study/basic-po/-/tree/master/knowledge/po-product-backlog_9/README.md"
		},
		{
			"ksat_id": "K0422",
			"item_proficiency": "B",
			"url": "https://gitlab.com/90cos/product-owner-po-eval-study/basic-po/-/tree/master/knowledge/po-product-backlog_9/README.md"
		}
	],
	"complexity": 1,
	"revision_number": 1,
	"disabled": false,
	"provisioned": 0,
	"attempts": 0,
	"passes": 0,
	"failures": 0,
	"test_id": "Basic-Po",
	"test_type": "knowledge",
	"question_id": "BPO_0022",
	"network": "commercial",
	"question_name": "po-product-backlog_9",
	"language": "",
	"question_proficiency": "B",
	"estimated_time_to_complete": 2,
	"created_on": "2020-06-16",
	"updated_on": "2020-01-08 17:51:10",
	"work-roles": [
		"Basic-Po"
	],
	"map_for": "eval"
},
{
	"_id": {
		"$oid": "5ee9250b761cf87371cf314c"
	},
	"topic": "Product Owner",
	"KSATs": [
		{
			"ksat_id": "K0367",
			"item_proficiency": "B",
			"url": "https://gitlab.com/90cos/product-owner-po-eval-study/basic-po/-/tree/master/knowledge/po-responsibilities_3/README.md"
		}
	],
	"complexity": 1,
	"revision_number": 1,
	"disabled": false,
	"provisioned": 0,
	"attempts": 0,
	"passes": 0,
	"failures": 0,
	"test_id": "Basic-Po",
	"test_type": "knowledge",
	"question_id": "BPO_0035",
	"network": "commercial",
	"question_name": "po-responsibilities_3",
	"language": "",
	"question_proficiency": "B",
	"estimated_time_to_complete": 2,
	"created_on": "2020-06-16",
	"updated_on": "2019-12-10 18:13:19",
	"work-roles": [
		"Basic-Po"
	],
	"map_for": "eval"
},
{
	"_id": {
		"$oid": "5ee9250b761cf87371cf314d"
	},
	"topic": "Product Owner",
	"KSATs": [
		{
			"ksat_id": "K0382",
			"item_proficiency": "B",
			"url": "https://gitlab.com/90cos/product-owner-po-eval-study/basic-po/-/tree/master/knowledge/po-product-backlog_13/README.md"
		}
	],
	"complexity": 1,
	"revision_number": 1,
	"disabled": false,
	"provisioned": 0,
	"attempts": 0,
	"passes": 0,
	"failures": 0,
	"test_id": "Basic-Po",
	"test_type": "knowledge",
	"question_id": "BPO_0026",
	"network": "commercial",
	"question_name": "po-product-backlog_13",
	"language": "",
	"question_proficiency": "B",
	"estimated_time_to_complete": 2,
	"created_on": "2020-06-16",
	"updated_on": "2019-12-11 20:11:44",
	"work-roles": [
		"Basic-Po"
	],
	"map_for": "eval"
},
{
	"_id": {
		"$oid": "5ee9250b761cf87371cf314e"
	},
	"topic": "Product Owner",
	"KSATs": [
		{
			"ksat_id": "K0387",
			"item_proficiency": "A",
			"url": "https://gitlab.com/90cos/product-owner-po-eval-study/basic-po/-/tree/master/knowledge/po-scrum-teams_1/README.md"
		}
	],
	"complexity": 1,
	"revision_number": 1,
	"disabled": false,
	"provisioned": 0,
	"attempts": 0,
	"passes": 0,
	"failures": 0,
	"test_id": "Basic-Po",
	"test_type": "knowledge",
	"question_id": "BPO_0050",
	"network": "commercial",
	"question_name": "po-scrum-teams_1",
	"language": "",
	"question_proficiency": "A",
	"estimated_time_to_complete": 2,
	"created_on": "2020-06-16",
	"updated_on": "2019-12-10 18:13:19",
	"work-roles": [
		"Basic-Po"
	],
	"map_for": "eval"
},
{
	"_id": {
		"$oid": "5ee9250b761cf87371cf314f"
	},
	"topic": "Product Owner",
	"KSATs": [
		{
			"ksat_id": "K0382",
			"item_proficiency": "B",
			"url": "https://gitlab.com/90cos/product-owner-po-eval-study/basic-po/-/tree/master/knowledge/po-sprint-backlog_5/README.md"
		}
	],
	"complexity": 1,
	"revision_number": 1,
	"disabled": false,
	"provisioned": 0,
	"attempts": 0,
	"passes": 0,
	"failures": 0,
	"test_id": "Basic-Po",
	"test_type": "knowledge",
	"question_id": "BPO_0057",
	"network": "commercial",
	"question_name": "po-sprint-backlog_5",
	"language": "",
	"question_proficiency": "B",
	"estimated_time_to_complete": 2,
	"created_on": "2020-06-16",
	"updated_on": "2019-12-11 20:11:44",
	"work-roles": [
		"Basic-Po"
	],
	"map_for": "eval"
},
{
	"_id": {
		"$oid": "5ee9250b761cf87371cf3150"
	},
	"topic": "Product Owner",
	"KSATs": [
		{
			"ksat_id": "K0422",
			"item_proficiency": "B",
			"url": "https://gitlab.com/90cos/product-owner-po-eval-study/basic-po/-/tree/master/knowledge/po-product-backlog_14/README.md"
		}
	],
	"complexity": 1,
	"revision_number": 1,
	"disabled": false,
	"provisioned": 0,
	"attempts": 0,
	"passes": 0,
	"failures": 0,
	"test_id": "Basic-Po",
	"test_type": "knowledge",
	"question_id": "BPO_0027",
	"network": "commercial",
	"question_name": "po-product-backlog_14",
	"language": "",
	"question_proficiency": "B",
	"estimated_time_to_complete": 2,
	"created_on": "2020-06-16",
	"updated_on": "2019-12-11 20:11:44",
	"work-roles": [
		"Basic-Po"
	],
	"map_for": "eval"
},
{
	"_id": {
		"$oid": "5ee9250b761cf87371cf3151"
	},
	"topic": "Product Owner",
	"KSATs": [
		{
			"ksat_id": "K0366",
			"item_proficiency": "A",
			"url": "https://gitlab.com/90cos/product-owner-po-eval-study/basic-po/-/tree/master/knowledge/po-responsibilities_15/README.md"
		},
		{
			"ksat_id": "K0367",
			"item_proficiency": "B",
			"url": "https://gitlab.com/90cos/product-owner-po-eval-study/basic-po/-/tree/master/knowledge/po-responsibilities_15/README.md"
		},
		{
			"ksat_id": "K0415",
			"item_proficiency": "A",
			"url": "https://gitlab.com/90cos/product-owner-po-eval-study/basic-po/-/tree/master/knowledge/po-responsibilities_15/README.md"
		}
	],
	"complexity": 1,
	"revision_number": 1,
	"disabled": false,
	"provisioned": 0,
	"attempts": 0,
	"passes": 0,
	"failures": 0,
	"test_id": "Basic-Po",
	"test_type": "knowledge",
	"question_id": "BPO_0046",
	"network": "commercial",
	"question_name": "po-responsibilities_15",
	"language": "",
	"question_proficiency": "B",
	"estimated_time_to_complete": 2,
	"created_on": "2020-06-16",
	"updated_on": "2020-01-08 17:51:10",
	"work-roles": [
		"Basic-Po"
	],
	"map_for": "eval"
},
{
	"_id": {
		"$oid": "5ee9250b761cf87371cf3152"
	},
	"topic": "Product Owner",
	"KSATs": [
		{
			"ksat_id": "K0366",
			"item_proficiency": "A",
			"url": "https://gitlab.com/90cos/product-owner-po-eval-study/basic-po/-/tree/master/knowledge/po-responsibilities_17/README.md"
		},
		{
			"ksat_id": "K0367",
			"item_proficiency": "B",
			"url": "https://gitlab.com/90cos/product-owner-po-eval-study/basic-po/-/tree/master/knowledge/po-responsibilities_17/README.md"
		}
	],
	"complexity": 1,
	"revision_number": 1,
	"disabled": false,
	"provisioned": 0,
	"attempts": 0,
	"passes": 0,
	"failures": 0,
	"test_id": "Basic-Po",
	"test_type": "knowledge",
	"question_id": "BPO_0048",
	"network": "commercial",
	"question_name": "po-responsibilities_17",
	"language": "",
	"question_proficiency": "B",
	"estimated_time_to_complete": 2.25,
	"created_on": "2020-06-16",
	"updated_on": "2019-12-12 15:52:03",
	"work-roles": [
		"Basic-Po"
	],
	"map_for": "eval"
},
{
	"_id": {
		"$oid": "5ee9250b761cf87371cf3153"
	},
	"topic": "Product Owner",
	"KSATs": [
		{
			"ksat_id": "K0366",
			"item_proficiency": "A",
			"url": "https://gitlab.com/90cos/product-owner-po-eval-study/basic-po/-/tree/master/knowledge/po-tech-debt_3/README.md"
		},
		{
			"ksat_id": "K0663",
			"item_proficiency": "B",
			"url": "https://gitlab.com/90cos/product-owner-po-eval-study/basic-po/-/tree/master/knowledge/po-tech-debt_3/README.md"
		}
	],
	"complexity": 1,
	"revision_number": 1,
	"disabled": false,
	"provisioned": 0,
	"attempts": 0,
	"passes": 0,
	"failures": 0,
	"test_id": "Basic-Po",
	"test_type": "knowledge",
	"question_id": "BPO_0066",
	"network": "commercial",
	"question_name": "po-tech-debt_3",
	"language": "",
	"question_proficiency": "B",
	"estimated_time_to_complete": 2,
	"created_on": "2020-06-16",
	"updated_on": "2019-12-11 20:11:44",
	"work-roles": [
		"Basic-Po"
	],
	"map_for": "eval"
},
{
	"_id": {
		"$oid": "5ee9250b761cf87371cf3154"
	},
	"topic": "Product Owner",
	"KSATs": [
		{
			"ksat_id": "K0382",
			"item_proficiency": "B",
			"url": "https://gitlab.com/90cos/product-owner-po-eval-study/basic-po/-/tree/master/knowledge/po-done_2/README.md"
		}
	],
	"complexity": 1,
	"revision_number": 1,
	"disabled": false,
	"provisioned": 0,
	"attempts": 0,
	"passes": 0,
	"failures": 0,
	"test_id": "Basic-Po",
	"test_type": "knowledge",
	"question_id": "BPO_0006",
	"network": "commercial",
	"question_name": "po-done_2",
	"language": "",
	"question_proficiency": "B",
	"estimated_time_to_complete": 2,
	"created_on": "2020-06-16",
	"updated_on": "2019-12-11 20:11:44",
	"work-roles": [
		"Basic-Po"
	],
	"map_for": "eval"
},
{
	"_id": {
		"$oid": "5ee9250b761cf87371cf3155"
	},
	"topic": "Product Owner",
	"KSATs": [
		{
			"ksat_id": "K0663",
			"item_proficiency": "B",
			"url": "https://gitlab.com/90cos/product-owner-po-eval-study/basic-po/-/tree/master/knowledge/po-velocity_2/README.md"
		}
	],
	"complexity": 1,
	"revision_number": 1,
	"disabled": false,
	"provisioned": 0,
	"attempts": 0,
	"passes": 0,
	"failures": 0,
	"test_id": "Basic-Po",
	"test_type": "knowledge",
	"question_id": "BPO_0073",
	"network": "commercial",
	"question_name": "po-velocity_2",
	"language": "",
	"question_proficiency": "B",
	"estimated_time_to_complete": 2.25,
	"created_on": "2020-06-16",
	"updated_on": "2019-12-12 15:52:03",
	"work-roles": [
		"Basic-Po"
	],
	"map_for": "eval"
},
{
	"_id": {
		"$oid": "5ee9250b761cf87371cf3156"
	},
	"topic": "Product Owner",
	"KSATs": [
		{
			"ksat_id": "K0668",
			"item_proficiency": "B",
			"url": "https://gitlab.com/90cos/product-owner-po-eval-study/basic-po/-/tree/master/knowledge/po-timebox_2/README.md"
		}
	],
	"complexity": 1,
	"revision_number": 1,
	"disabled": false,
	"provisioned": 0,
	"attempts": 0,
	"passes": 0,
	"failures": 0,
	"test_id": "Basic-Po",
	"test_type": "knowledge",
	"question_id": "BPO_0069",
	"network": "commercial",
	"question_name": "po-timebox_2",
	"language": "",
	"question_proficiency": "B",
	"estimated_time_to_complete": 2,
	"created_on": "2020-06-16",
	"updated_on": "2019-12-10 18:13:19",
	"work-roles": [
		"Basic-Po"
	],
	"map_for": "eval"
},
{
	"_id": {
		"$oid": "5ee9250b761cf87371cf3157"
	},
	"topic": "Product Owner",
	"KSATs": [
		{
			"ksat_id": "K0366",
			"item_proficiency": "A",
			"url": "https://gitlab.com/90cos/product-owner-po-eval-study/basic-po/-/tree/master/knowledge/po-responsibilities_16/README.md"
		}
	],
	"complexity": 1,
	"revision_number": 1,
	"disabled": false,
	"provisioned": 0,
	"attempts": 0,
	"passes": 0,
	"failures": 0,
	"test_id": "Basic-Po",
	"test_type": "knowledge",
	"question_id": "BPO_0047",
	"network": "commercial",
	"question_name": "po-responsibilities_16",
	"language": "",
	"question_proficiency": "A",
	"estimated_time_to_complete": 2.25,
	"created_on": "2020-06-16",
	"updated_on": "2019-12-12 15:52:03",
	"work-roles": [
		"Basic-Po"
	],
	"map_for": "eval"
},
{
	"_id": {
		"$oid": "5ee9250b761cf87371cf3158"
	},
	"topic": "Product Owner",
	"KSATs": [
		{
			"ksat_id": "K0366",
			"item_proficiency": "A",
			"url": "https://gitlab.com/90cos/product-owner-po-eval-study/basic-po/-/tree/master/knowledge/po-po-role_1/README.md"
		},
		{
			"ksat_id": "K0367",
			"item_proficiency": "B",
			"url": "https://gitlab.com/90cos/product-owner-po-eval-study/basic-po/-/tree/master/knowledge/po-po-role_1/README.md"
		}
	],
	"complexity": 1,
	"revision_number": 1,
	"disabled": false,
	"provisioned": 0,
	"attempts": 0,
	"passes": 0,
	"failures": 0,
	"test_id": "Basic-Po",
	"test_type": "knowledge",
	"question_id": "BPO_0012",
	"network": "commercial",
	"question_name": "po-po-role_1",
	"language": "",
	"question_proficiency": "B",
	"estimated_time_to_complete": 2.25,
	"created_on": "2020-06-16",
	"updated_on": "2020-01-08 17:51:10",
	"work-roles": [
		"Basic-Po"
	],
	"map_for": "eval"
},
{
	"_id": {
		"$oid": "5ee9250b761cf87371cf3159"
	},
	"topic": "Product Owner",
	"KSATs": [
		{
			"ksat_id": "K0367",
			"item_proficiency": "B",
			"url": "https://gitlab.com/90cos/product-owner-po-eval-study/basic-po/-/tree/master/knowledge/po-backlog_1/README.md"
		}
	],
	"complexity": 1,
	"revision_number": 1,
	"disabled": false,
	"provisioned": 0,
	"attempts": 0,
	"passes": 0,
	"failures": 0,
	"test_id": "Basic-Po",
	"test_type": "knowledge",
	"question_id": "BPO_0003",
	"network": "commercial",
	"question_name": "po-backlog_1",
	"language": "",
	"question_proficiency": "B",
	"estimated_time_to_complete": 2,
	"created_on": "2020-06-16",
	"updated_on": "2020-01-08 17:51:10",
	"work-roles": [
		"Basic-Po"
	],
	"map_for": "eval"
},
{
	"_id": {
		"$oid": "5ee9250b761cf87371cf315a"
	},
	"topic": "Product Owner",
	"KSATs": [
		{
			"ksat_id": "K0367",
			"item_proficiency": "B",
			"url": "https://gitlab.com/90cos/product-owner-po-eval-study/basic-po/-/tree/master/knowledge/po-responsibilities_10/README.md"
		},
		{
			"ksat_id": "K0649",
			"item_proficiency": "C",
			"url": "https://gitlab.com/90cos/product-owner-po-eval-study/basic-po/-/tree/master/knowledge/po-responsibilities_10/README.md"
		}
	],
	"complexity": 1,
	"revision_number": 1,
	"disabled": false,
	"provisioned": 0,
	"attempts": 0,
	"passes": 0,
	"failures": 0,
	"test_id": "Basic-Po",
	"test_type": "knowledge",
	"question_id": "BPO_0042",
	"network": "commercial",
	"question_name": "po-responsibilities_10",
	"language": "",
	"question_proficiency": "C",
	"estimated_time_to_complete": 2,
	"created_on": "2020-06-16",
	"updated_on": "2019-12-11 20:11:44",
	"work-roles": [
		"Basic-Po"
	],
	"map_for": "eval"
},
{
	"_id": {
		"$oid": "5ee9250b761cf87371cf315b"
	},
	"topic": "Product Owner",
	"KSATs": [
		{
			"ksat_id": "K0366",
			"item_proficiency": "A",
			"url": "https://gitlab.com/90cos/product-owner-po-eval-study/basic-po/-/tree/master/knowledge/po-stakeholder_2/README.md"
		},
		{
			"ksat_id": "K0371",
			"item_proficiency": "B",
			"url": "https://gitlab.com/90cos/product-owner-po-eval-study/basic-po/-/tree/master/knowledge/po-stakeholder_2/README.md"
		}
	],
	"complexity": 1,
	"revision_number": 1,
	"disabled": false,
	"provisioned": 0,
	"attempts": 0,
	"passes": 0,
	"failures": 0,
	"test_id": "Basic-Po",
	"test_type": "knowledge",
	"question_id": "BPO_0063",
	"network": "commercial",
	"question_name": "po-stakeholder_2",
	"language": "",
	"question_proficiency": "B",
	"estimated_time_to_complete": 2,
	"created_on": "2020-06-16",
	"updated_on": "2019-12-11 20:11:44",
	"work-roles": [
		"Basic-Po"
	],
	"map_for": "eval"
},
{
	"_id": {
		"$oid": "5ee9250b761cf87371cf315c"
	},
	"topic": "Product Owner",
	"KSATs": [
		{
			"ksat_id": "A0635",
			"item_proficiency": "2",
			"url": "https://gitlab.com/90cos/product-owner-po-eval-study/basic-po/-/tree/master/performance/ScenarioA_NewProject/scenarioA-NewProject.rel-link.json"
		},
		{
			"ksat_id": "A0636",
			"item_proficiency": "2",
			"url": "https://gitlab.com/90cos/product-owner-po-eval-study/basic-po/-/tree/master/performance/ScenarioA_NewProject/scenarioA-NewProject.rel-link.json"
		},
		{
			"ksat_id": "A0642",
			"item_proficiency": "1",
			"url": "https://gitlab.com/90cos/product-owner-po-eval-study/basic-po/-/tree/master/performance/ScenarioA_NewProject/scenarioA-NewProject.rel-link.json"
		},
		{
			"ksat_id": "A0651",
			"item_proficiency": "2",
			"url": "https://gitlab.com/90cos/product-owner-po-eval-study/basic-po/-/tree/master/performance/ScenarioA_NewProject/scenarioA-NewProject.rel-link.json"
		},
		{
			"ksat_id": "S0188",
			"item_proficiency": "2",
			"url": "https://gitlab.com/90cos/product-owner-po-eval-study/basic-po/-/tree/master/performance/ScenarioA_NewProject/scenarioA-NewProject.rel-link.json"
		},
		{
			"ksat_id": "S0200",
			"item_proficiency": "2",
			"url": "https://gitlab.com/90cos/product-owner-po-eval-study/basic-po/-/tree/master/performance/ScenarioA_NewProject/scenarioA-NewProject.rel-link.json"
		},
		{
			"ksat_id": "S0202",
			"item_proficiency": "2",
			"url": "https://gitlab.com/90cos/product-owner-po-eval-study/basic-po/-/tree/master/performance/ScenarioA_NewProject/scenarioA-NewProject.rel-link.json"
		}
	],
	"complexity": 3,
	"revision_number": 1,
	"disabled": false,
	"provisioned": 0,
	"attempts": 0,
	"passes": 0,
	"failures": 0,
	"test_id": "Basic-Po",
	"test_type": "performance",
	"question_id": "BPO_0074",
	"network": "commercial",
	"question_name": "scenarioA-NewProject",
	"language": ".5",
	"question_proficiency": "2b",
	"estimated_time_to_complete": 120,
	"created_on": "2020-06-16",
	"updated_on": "2020-01-30 17:24:59",
	"work-roles": [
		"Basic-Po"
	],
	"map_for": "eval"
}]

