[
    {
        "work-role": "Senior-PO",
        "ksat_id": "A0436",
        "proficiency": "3"
    },
    {
        "work-role": "Senior-PO",
        "ksat_id": "A0462",
        "proficiency": "3"
    },
    {
        "work-role": "Senior-PO",
        "ksat_id": "A0463",
        "proficiency": "3"
    },
    {
        "work-role": "Senior-PO",
        "ksat_id": "A0459",
        "proficiency": "3"
    },
    {
        "work-role": "Senior-PO",
        "ksat_id": "A0460",
        "proficiency": "3"
    },
    {
        "work-role": "Senior-PO",
        "ksat_id": "A0454",
        "proficiency": "2"
    },
    {
        "work-role": "Senior-PO",
        "ksat_id": "A0461",
        "proficiency": "3"
    },
    {
        "work-role": "Senior-PO",
        "ksat_id": "A0444",
        "proficiency": "3"
    },
    {
        "work-role": "Senior-PO",
        "ksat_id": "A0452",
        "proficiency": "2"
    },
    {
        "work-role": "Senior-PO",
        "ksat_id": "A0645",
        "proficiency": ""
    },
    {
        "work-role": "Senior-PO",
        "ksat_id": "A0638",
        "proficiency": ""
    },
    {
        "work-role": "Senior-PO",
        "ksat_id": "K0375",
        "proficiency": "B"
    },
    {
        "work-role": "Senior-PO",
        "ksat_id": "K0374",
        "proficiency": ""
    },
    {
        "work-role": "Senior-PO",
        "ksat_id": "K0376",
        "proficiency": ""
    },
    {
        "work-role": "Senior-PO",
        "ksat_id": "K0378",
        "proficiency": "B"
    },
    {
        "work-role": "Senior-PO",
        "ksat_id": "K0380",
        "proficiency": "B"
    },
    {
        "work-role": "Senior-PO",
        "ksat_id": "K0379",
        "proficiency": "B"
    },
    {
        "work-role": "Senior-PO",
        "ksat_id": "K0381",
        "proficiency": ""
    },
    {
        "work-role": "Senior-PO",
        "ksat_id": "K0383",
        "proficiency": ""
    },
    {
        "work-role": "Senior-PO",
        "ksat_id": "K0384",
        "proficiency": "A"
    },
    {
        "work-role": "Senior-PO",
        "ksat_id": "K0388",
        "proficiency": "B"
    },
    {
        "work-role": "Senior-PO",
        "ksat_id": "K0386",
        "proficiency": ""
    },
    {
        "work-role": "Senior-PO",
        "ksat_id": "K0385",
        "proficiency": "A"
    },
    {
        "work-role": "Senior-PO",
        "ksat_id": "K0390",
        "proficiency": "B"
    },
    {
        "work-role": "Senior-PO",
        "ksat_id": "K0389",
        "proficiency": "C"
    },
    {
        "work-role": "Senior-PO",
        "ksat_id": "K0394",
        "proficiency": ""
    },
    {
        "work-role": "Senior-PO",
        "ksat_id": "K0397",
        "proficiency": "B"
    },
    {
        "work-role": "Senior-PO",
        "ksat_id": "K0398",
        "proficiency": "B"
    },
    {
        "work-role": "Senior-PO",
        "ksat_id": "K0405",
        "proficiency": ""
    },
    {
        "work-role": "Senior-PO",
        "ksat_id": "K0409",
        "proficiency": "A"
    },
    {
        "work-role": "Senior-PO",
        "ksat_id": "K0410",
        "proficiency": "C"
    },
    {
        "work-role": "Senior-PO",
        "ksat_id": "K0424",
        "proficiency": "B"
    },
    {
        "work-role": "Senior-PO",
        "ksat_id": "K0426",
        "proficiency": "C"
    },
    {
        "work-role": "Senior-PO",
        "ksat_id": "K0425",
        "proficiency": "B"
    },
    {
        "work-role": "Senior-PO",
        "ksat_id": "K0434",
        "proficiency": ""
    },
    {
        "work-role": "Senior-PO",
        "ksat_id": "K0436",
        "proficiency": ""
    },
    {
        "work-role": "Senior-PO",
        "ksat_id": "K0441",
        "proficiency": ""
    },
    {
        "work-role": "Senior-PO",
        "ksat_id": "K0440",
        "proficiency": ""
    },
    {
        "work-role": "Senior-PO",
        "ksat_id": "K0457",
        "proficiency": ""
    },
    {
        "work-role": "Senior-PO",
        "ksat_id": "K0460",
        "proficiency": ""
    },
    {
        "work-role": "Senior-PO",
        "ksat_id": "K0458",
        "proficiency": ""
    },
    {
        "work-role": "Senior-PO",
        "ksat_id": "K0462",
        "proficiency": ""
    },
    {
        "work-role": "Senior-PO",
        "ksat_id": "K0463",
        "proficiency": ""
    },
    {
        "work-role": "Senior-PO",
        "ksat_id": "K0481",
        "proficiency": ""
    },
    {
        "work-role": "Senior-PO",
        "ksat_id": "S0187",
        "proficiency": "2"
    },
    {
        "work-role": "Senior-PO",
        "ksat_id": "S0189",
        "proficiency": "2"
    },
    {
        "work-role": "Senior-PO",
        "ksat_id": "S0192",
        "proficiency": "2"
    },
    {
        "work-role": "Senior-PO",
        "ksat_id": "S0190",
        "proficiency": "2"
    },
    {
        "work-role": "Senior-PO",
        "ksat_id": "S0191",
        "proficiency": ""
    },
    {
        "work-role": "Senior-PO",
        "ksat_id": "S0193",
        "proficiency": "3"
    },
    {
        "work-role": "Senior-PO",
        "ksat_id": "S0196",
        "proficiency": "3"
    },
    {
        "work-role": "Senior-PO",
        "ksat_id": "S0197",
        "proficiency": "2"
    },
    {
        "work-role": "Senior-PO",
        "ksat_id": "S0198",
        "proficiency": "3"
    },
    {
        "work-role": "Senior-PO",
        "ksat_id": "S0199",
        "proficiency": "2"
    },
    {
        "work-role": "Senior-PO",
        "ksat_id": "S0202",
        "proficiency": "2"
    },
    {
        "work-role": "Senior-PO",
        "ksat_id": "S0203",
        "proficiency": "3"
    }
]